<?xml version="1.0" encoding="UTF-8"?>
<glyph name="delta" format="1">
  <advance width="511"/>
  <unicode hex="03B4"/>
  <outline>
    <contour>
      <point x="252" y="-20" type="curve" smooth="yes"/>
      <point x="397" y="-20"/>
      <point x="496" y="88"/>
      <point x="496" y="244" type="curve" smooth="yes"/>
      <point x="496" y="485"/>
      <point x="180" y="502"/>
      <point x="134" y="556" type="curve"/>
      <point x="140" y="571"/>
      <point x="165" y="580"/>
      <point x="199" y="580" type="curve" smooth="yes"/>
      <point x="259" y="580"/>
      <point x="340" y="551"/>
      <point x="437" y="493" type="curve"/>
      <point x="477" y="505" type="line"/>
      <point x="493" y="537"/>
      <point x="510" y="609"/>
      <point x="510" y="648" type="curve"/>
      <point x="479" y="672"/>
      <point x="428" y="696"/>
      <point x="376" y="712" type="curve" smooth="yes"/>
      <point x="334" y="726"/>
      <point x="285" y="735"/>
      <point x="239" y="735" type="curve" smooth="yes"/>
      <point x="128" y="735"/>
      <point x="53" y="671"/>
      <point x="53" y="577" type="curve" smooth="yes"/>
      <point x="53" y="484"/>
      <point x="102" y="406"/>
      <point x="182" y="369" type="curve"/>
      <point x="240" y="314" type="line"/>
      <point x="314" y="304"/>
      <point x="389" y="279"/>
      <point x="407" y="258" type="curve"/>
      <point x="396" y="214"/>
      <point x="314" y="183"/>
      <point x="209" y="183" type="curve" smooth="yes"/>
      <point x="177" y="183"/>
      <point x="146" y="187"/>
      <point x="118" y="195" type="curve"/>
      <point x="111" y="201"/>
      <point x="107" y="210"/>
      <point x="107" y="221" type="curve" smooth="yes"/>
      <point x="107" y="266"/>
      <point x="194" y="289"/>
      <point x="366" y="289" type="curve"/>
      <point x="172" y="408" type="line"/>
      <point x="84" y="402"/>
      <point x="15" y="323"/>
      <point x="15" y="219" type="curve" smooth="yes"/>
      <point x="15" y="89"/>
      <point x="112" y="-20"/>
    </contour>
  </outline>
  <lib>
    <dict>
      <key>com.typemytype.robofont.mark</key>
      <array>
        <real>0.4</real>
        <real>1.0</real>
        <real>0.8</real>
        <real>1.0</real>
      </array>
    </dict>
  </lib>
</glyph>
