<?xml version="1.0" encoding="UTF-8"?>
<glyph name="Adieresis" format="1">
  <advance width="719"/>
  <unicode hex="00C4"/>
  <outline>
    <component base="A"/>
    <component base="dieresiscomb.case" xOffset="347" yOffset="179"/>
  </outline>
  <lib>
    <dict>
      <key>com.schriftgestaltung.Glyphs.ColorIndex</key>
      <integer>3</integer>
      <key>com.schriftgestaltung.Glyphs.leftMetricsKey</key>
      <string>A</string>
      <key>com.schriftgestaltung.Glyphs.rightMetricsKey</key>
      <string>A</string>
      <key>public.markColor</key>
      <string>0.97,1,0,1</string>
    </dict>
  </lib>
</glyph>
