<?xml version="1.0" encoding="UTF-8"?>
<glyph name="asper.case" format="1">
  <advance width="315.0"/>
  <outline>
    <contour>
      <point x="152" y="411" type="line"/>
      <point x="78" y="445"/>
      <point x="32" y="512"/>
      <point x="32" y="573" type="curve" smooth="yes"/>
      <point x="32" y="613"/>
      <point x="57" y="654"/>
      <point x="108" y="666" type="curve"/>
      <point x="146" y="650"/>
      <point x="169" y="618"/>
      <point x="176" y="576" type="curve"/>
      <point x="124" y="537" type="line"/>
      <point x="127" y="506"/>
      <point x="145" y="484"/>
      <point x="182" y="452" type="curve"/>
    </contour>
    <contour>
      <point x="155" y="343" type="move" name="_left"/>
    </contour>
  </outline>
  <lib>
    <dict>
      <key>com.typemytype.robofont.mark</key>
      <array>
        <real>0.4</real>
        <real>1.0</real>
        <real>0.8</real>
        <real>1.0</real>
      </array>
    </dict>
  </lib>
</glyph>
