<?xml version="1.0" encoding="UTF-8"?>
<glyph name="brevecomb" format="1">
  <advance width="0"/>
  <unicode hex="0306"/>
  <outline>
    <contour>
      <point x="63" y="717" type="line"/>
      <point x="63" y="665"/>
      <point x="36" y="635"/>
      <point x="-2" y="635" type="curve" smooth="yes"/>
      <point x="-35" y="635"/>
      <point x="-66" y="658"/>
      <point x="-73" y="718" type="curve"/>
      <point x="-160" y="711" type="line"/>
      <point x="-152" y="600"/>
      <point x="-73" y="550"/>
      <point x="5" y="550" type="curve" smooth="yes"/>
      <point x="87" y="550"/>
      <point x="159" y="605"/>
      <point x="162" y="712" type="curve"/>
    </contour>
    <contour>
      <point x="-1" y="471" type="move" name="_top"/>
    </contour>
  </outline>
  <lib>
    <dict>
      <key>com.schriftgestaltung.Glyphs.ColorIndex</key>
      <integer>3</integer>
      <key>public.markColor</key>
      <string>0.97,1,0,1</string>
    </dict>
  </lib>
</glyph>
