<?xml version="1.0" encoding="UTF-8"?>
<glyph name="dvMatraI.8" format="1">
  <advance width="290"/>
  <outline>
    <contour>
      <point x="320" y="538" type="line"/>
      <point x="337" y="573" type="line"/>
      <point x="289" y="639" type="line"/>
      <point x="-31" y="639" type="line"/>
      <point x="-48" y="605" type="line"/>
      <point x="-1" y="538" type="line"/>
    </contour>
    <contour>
      <point x="80" y="14" type="line"/>
      <point x="176" y="-40" type="line"/>
      <point x="215" y="-23" type="line"/>
      <point x="215" y="493" type="line"/>
      <point x="126" y="560" type="line"/>
      <point x="80" y="581" type="line"/>
    </contour>
    <contour>
      <point x="1194" y="718" type="line"/>
      <point x="846" y="901"/>
      <point x="565" y="974"/>
      <point x="363" y="974" type="curve" smooth="yes"/>
      <point x="143" y="974"/>
      <point x="24" y="892"/>
      <point x="24" y="774" type="curve" smooth="yes"/>
      <point x="24" y="726"/>
      <point x="44" y="676"/>
      <point x="96" y="624" type="curve"/>
      <point x="174" y="624" type="line"/>
      <point x="151" y="658"/>
      <point x="144" y="684"/>
      <point x="144" y="707" type="curve" smooth="yes"/>
      <point x="144" y="802"/>
      <point x="256" y="857"/>
      <point x="427" y="857" type="curve" smooth="yes"/>
      <point x="634" y="857"/>
      <point x="894" y="777"/>
      <point x="1153" y="662" type="curve"/>
    </contour>
    <contour>
      <point x="1194" y="718" type="move" name="abvmTOP"/>
    </contour>
  </outline>
</glyph>
