<?xml version="1.0" encoding="UTF-8"?>
<glyph name="Eacute" format="1">
  <advance width="617"/>
  <unicode hex="00C9"/>
  <outline>
    <component base="E"/>
    <component base="acutecomb.case" xOffset="310"/>
  </outline>
  <lib>
    <dict>
      <key>com.schriftgestaltung.Glyphs.ColorIndex</key>
      <integer>3</integer>
      <key>public.markColor</key>
      <string>0.97,1,0,1</string>
    </dict>
  </lib>
</glyph>
