<?xml version="1.0" encoding="UTF-8"?>
<glyph name="etalenisiotasub" format="1">
  <advance width="547"/>
  <unicode hex="1F90"/>
  <note>
  </note>
  <outline>
    <component base="iotaadscript" xOffset="42"/>
    <component base="lenis" xOffset="128"/>
    <component base="eta"/>
  </outline>
  <lib>
    <dict>
      <key>com.typemytype.robofont.mark</key>
      <array>
        <real>0.4</real>
        <real>1.0</real>
        <real>0.8</real>
        <real>1.0</real>
      </array>
    </dict>
  </lib>
</glyph>
