<?xml version="1.0" encoding="UTF-8"?>
<glyph name="Iotaaspergrave" format="1">
  <advance width="382"/>
  <unicode hex="1F3B"/>
  <note>
  </note>
  <outline>
    <component base="aspergrave.case" xOffset="-287"/>
    <component base="Iota"/>
  </outline>
  <lib>
    <dict>
      <key>com.typemytype.robofont.mark</key>
      <array>
        <real>0.4</real>
        <real>1.0</real>
        <real>0.8</real>
        <real>1.0</real>
      </array>
    </dict>
  </lib>
</glyph>
