<?xml version="1.0" encoding="UTF-8"?>
<glyph name="Omegalenisgraveiotasub" format="1">
  <advance width="801"/>
  <unicode hex="1FAA"/>
  <note>
  </note>
  <outline>
    <component base="Omega"/>
    <component base="lenisgrave.case" xOffset="-151"/>
    <component base="iotaadscript.case" xOffset="289"/>
  </outline>
  <lib>
    <dict>
      <key>com.typemytype.robofont.mark</key>
      <array>
        <real>0.4</real>
        <real>1.0</real>
        <real>0.8</real>
        <real>1.0</real>
      </array>
    </dict>
  </lib>
</glyph>
