<?xml version="1.0" encoding="UTF-8"?>
<glyph name="y" format="1">
  <advance width="541"/>
  <unicode hex="0079"/>
  <outline>
    <contour>
      <point x="-22" y="423" type="line"/>
      <point x="138" y="354" type="line"/>
      <point x="171" y="475" type="line"/>
      <point x="-22" y="475" type="line"/>
    </contour>
    <contour>
      <point x="143" y="475" type="line"/>
      <point x="168" y="395" type="line"/>
      <point x="196" y="404"/>
      <point x="222" y="416"/>
      <point x="247" y="431" type="curve"/>
      <point x="244" y="475" type="line"/>
    </contour>
    <contour>
      <point x="294" y="423" type="line"/>
      <point x="428" y="373" type="line"/>
      <point x="434" y="475" type="line"/>
      <point x="295" y="475" type="line"/>
    </contour>
    <contour>
      <point x="413" y="475" type="line"/>
      <point x="466" y="395" type="line"/>
      <point x="494" y="404"/>
      <point x="524" y="416"/>
      <point x="549" y="431" type="curve"/>
      <point x="546" y="475" type="line"/>
    </contour>
    <contour>
      <point x="260" y="-145"/>
      <point x="338" y="-49"/>
      <point x="389" y="74" type="curve"/>
      <point x="435" y="198"/>
      <point x="477" y="349"/>
      <point x="514" y="475" type="curve"/>
      <point x="356" y="475" type="line"/>
      <point x="345" y="369"/>
      <point x="314" y="229"/>
      <point x="282" y="127" type="curve"/>
      <point x="264" y="127" type="line"/>
      <point x="252" y="214" type="line"/>
      <point x="174" y="475" type="line"/>
      <point x="24" y="453" type="line"/>
      <point x="175" y="38" type="line"/>
      <point x="197" y="23"/>
      <point x="225" y="11"/>
      <point x="250" y="5" type="curve"/>
      <point x="194" y="-42"/>
      <point x="123" y="-70"/>
      <point x="47" y="-91" type="curve"/>
      <point x="124" y="-222" type="line"/>
    </contour>
    <contour>
      <point x="273" y="468" type="move" name="top"/>
    </contour>
  </outline>
  <lib>
    <dict>
      <key>com.schriftgestaltung.Glyphs.ColorIndex</key>
      <integer>3</integer>
      <key>com.schriftgestaltung.Glyphs.leftMetricsKey</key>
      <string>v</string>
      <key>com.schriftgestaltung.Glyphs.rightMetricsKey</key>
      <string>v</string>
      <key>public.markColor</key>
      <string>0.97,1,0,1</string>
    </dict>
  </lib>
</glyph>
