<?xml version="1.0" encoding="UTF-8"?>
<glyph name="dvMatraE" format="1">
  <advance width="0"/>
  <unicode hex="0947"/>
  <outline>
    <contour>
      <point x="-518" y="762" type="line"/>
      <point x="-401" y="839"/>
      <point x="-333" y="831"/>
      <point x="-275" y="734" type="curve" smooth="yes"/>
      <point x="-190" y="594" type="line"/>
      <point x="-105" y="634" type="line"/>
      <point x="-207" y="796" type="line" smooth="yes"/>
      <point x="-311" y="965"/>
      <point x="-434" y="1031"/>
      <point x="-603" y="925" type="curve"/>
    </contour>
    <contour>
      <point x="-58" y="655" type="move" name="abvmBINDU"/>
    </contour>
    <contour>
      <point x="-163" y="473" type="move" name="_abvmTOP"/>
    </contour>
  </outline>
</glyph>
