<?xml version="1.0" encoding="UTF-8"?>
<glyph name="dvSha.MAR" format="1">
  <advance width="836"/>
  <outline>
    <contour>
      <point x="600" y="19" type="line"/>
      <point x="714" y="-43" type="line"/>
      <point x="760" y="-21" type="line"/>
      <point x="760" y="490" type="line"/>
      <point x="656" y="564" type="line"/>
      <point x="600" y="590" type="line"/>
    </contour>
    <contour>
      <point x="502" y="-36" type="line"/>
      <point x="253" y="114" type="line"/>
      <point x="155" y="60" type="line"/>
      <point x="434" y="-135" type="line"/>
      <point x="503" y="-81" type="line"/>
    </contour>
    <contour>
      <point x="871" y="538" type="line"/>
      <point x="892" y="580" type="line"/>
      <point x="836" y="655" type="line"/>
      <point x="-36" y="655" type="line"/>
      <point x="-57" y="613" type="line"/>
      <point x="0" y="538" type="line"/>
    </contour>
    <contour>
      <point x="102" y="271" type="line"/>
      <point x="173" y="322"/>
      <point x="275" y="373"/>
      <point x="339" y="379" type="curve"/>
      <point x="356" y="363"/>
      <point x="365" y="338"/>
      <point x="365" y="318" type="curve" smooth="yes"/>
      <point x="365" y="258"/>
      <point x="284" y="172"/>
      <point x="150" y="174" type="curve"/>
      <point x="261" y="32" type="line"/>
      <point x="440" y="59"/>
      <point x="516" y="167"/>
      <point x="516" y="262" type="curve" smooth="yes"/>
      <point x="516" y="386"/>
      <point x="388" y="511"/>
      <point x="258" y="511" type="curve" smooth="yes"/>
      <point x="180" y="511"/>
      <point x="81" y="465"/>
      <point x="21" y="414" type="curve"/>
    </contour>
    <contour>
      <point x="291" y="90" type="line"/>
      <point x="156" y="231" type="line"/>
      <point x="110" y="222" type="line"/>
      <point x="60" y="71" type="line"/>
      <point x="101" y="43"/>
      <point x="199" y="24"/>
      <point x="248" y="33" type="curve"/>
    </contour>
    <contour>
      <point x="216" y="454" type="line"/>
      <point x="375" y="420" type="line"/>
      <point x="375" y="558" type="line"/>
      <point x="272" y="564" type="line"/>
      <point x="216" y="590" type="line"/>
    </contour>
    <contour>
      <point x="472" y="660" type="move" name="abvmBINDU"/>
    </contour>
    <contour>
      <point x="671" y="473" type="move" name="abvmTOP"/>
    </contour>
    <contour>
      <point x="491" y="660" type="move" name="abvmCANDRABINDU"/>
    </contour>
    <contour>
      <point x="938" y="660" type="move" name="abvmCANDRABINDU2"/>
    </contour>
    <contour>
      <point x="580" y="-110" type="move" name="blwmBOTTOM"/>
    </contour>
  </outline>
</glyph>
