<?xml version="1.0" encoding="UTF-8"?>
<glyph name="dvTthTtha" format="1">
  <advance width="632"/>
  <outline>
    <contour>
      <point x="391" y="335" type="line"/>
      <point x="431" y="307"/>
      <point x="449" y="271"/>
      <point x="449" y="237" type="curve" smooth="yes"/>
      <point x="449" y="175"/>
      <point x="382" y="137"/>
      <point x="305" y="137" type="curve" smooth="yes"/>
      <point x="273" y="137"/>
      <point x="238" y="143"/>
      <point x="209" y="160" type="curve"/>
      <point x="192" y="181"/>
      <point x="184" y="204"/>
      <point x="184" y="226" type="curve" smooth="yes"/>
      <point x="184" y="272"/>
      <point x="220" y="315"/>
      <point x="305" y="315" type="curve" smooth="yes"/>
      <point x="462" y="315" type="line"/>
      <point x="379" y="459" type="line"/>
      <point x="277" y="459" type="line" smooth="yes"/>
      <point x="109" y="459"/>
      <point x="36" y="367"/>
      <point x="36" y="276" type="curve" smooth="yes"/>
      <point x="36" y="141"/>
      <point x="198" y="3"/>
      <point x="375" y="3" type="curve" smooth="yes"/>
      <point x="515" y="3"/>
      <point x="596" y="89"/>
      <point x="596" y="189" type="curve" smooth="yes"/>
      <point x="596" y="282"/>
      <point x="528" y="369"/>
      <point x="429" y="423" type="curve"/>
    </contour>
    <contour>
      <point x="315" y="345" type="line"/>
      <point x="470" y="315" type="line"/>
      <point x="470" y="490" type="line"/>
      <point x="366" y="564" type="line"/>
      <point x="315" y="590" type="line"/>
    </contour>
    <contour>
      <point x="667" y="538" type="line"/>
      <point x="688" y="580" type="line"/>
      <point x="632" y="655" type="line"/>
      <point x="-36" y="655" type="line"/>
      <point x="-57" y="613" type="line"/>
      <point x="0" y="538" type="line"/>
    </contour>
    <contour>
      <point x="406" y="-161" type="line"/>
      <point x="441" y="-186"/>
      <point x="456" y="-217"/>
      <point x="456" y="-246" type="curve" smooth="yes"/>
      <point x="456" y="-304"/>
      <point x="396" y="-334"/>
      <point x="333" y="-334" type="curve" smooth="yes"/>
      <point x="305" y="-334"/>
      <point x="276" y="-329"/>
      <point x="251" y="-316" type="curve"/>
      <point x="237" y="-299"/>
      <point x="230" y="-277"/>
      <point x="230" y="-259" type="curve" smooth="yes"/>
      <point x="230" y="-219"/>
      <point x="261" y="-182"/>
      <point x="332" y="-182" type="curve" smooth="yes"/>
      <point x="467" y="-182" type="line"/>
      <point x="396" y="-55" type="line"/>
      <point x="307" y="-55" type="line" smooth="yes"/>
      <point x="163" y="-55"/>
      <point x="99" y="-133"/>
      <point x="99" y="-215" type="curve" smooth="yes"/>
      <point x="99" y="-335"/>
      <point x="232" y="-449"/>
      <point x="389" y="-449" type="curve" smooth="yes"/>
      <point x="516" y="-449"/>
      <point x="584" y="-374"/>
      <point x="584" y="-287" type="curve" smooth="yes"/>
      <point x="584" y="-206"/>
      <point x="524" y="-131"/>
      <point x="439" y="-85" type="curve"/>
    </contour>
    <contour>
      <point x="340" y="-153" type="line"/>
      <point x="474" y="-179" type="line"/>
      <point x="474" y="-28" type="line"/>
      <point x="384" y="36" type="line"/>
      <point x="340" y="59" type="line"/>
    </contour>
    <contour>
      <point x="356" y="660" type="move" name="abvmBINDU"/>
    </contour>
    <contour>
      <point x="427" y="473" type="move" name="abvmTOP"/>
    </contour>
    <contour>
      <point x="375" y="660" type="move" name="abvmCANDRABINDU"/>
    </contour>
    <contour>
      <point x="685" y="660" type="move" name="abvmCANDRABINDU2"/>
    </contour>
    <contour>
      <point x="329" y="-446" type="move" name="blwmBOTTOM"/>
    </contour>
  </outline>
</glyph>
