<?xml version="1.0" encoding="UTF-8"?>
<glyph name="two.numr" format="1">
  <advance width="310"/>
  <outline>
    <component base="twosuperior" xOffset="2" yOffset="-81"/>
  </outline>
  <lib>
    <dict>
      <key>com.schriftgestaltung.Glyphs.ColorIndex</key>
      <integer>3</integer>
      <key>public.markColor</key>
      <string>0.97,1,0,1</string>
    </dict>
  </lib>
</glyph>
