<?xml version="1.0" encoding="UTF-8"?>
<glyph name="upsilonlenisgrave" format="1">
  <advance width="493"/>
  <unicode hex="1F52"/>
  <note>
  </note>
  <outline>
    <component base="upsilon"/>
    <component base="lenisgrave" xOffset="31.0"/>
  </outline>
  <lib>
    <dict>
      <key>com.typemytype.robofont.mark</key>
      <array>
        <real>1.0</real>
        <real>0.8</real>
        <real>0.4</real>
        <real>1.0</real>
      </array>
    </dict>
  </lib>
</glyph>
