<?xml version="1.0" encoding="UTF-8"?>
<glyph name="dvDhNYa" format="1">
  <advance width="1151"/>
  <outline>
    <contour>
      <point x="158" y="-44" type="line"/>
      <point x="204" y="-96"/>
      <point x="308" y="-141"/>
      <point x="390" y="-138" type="curve"/>
      <point x="423" y="-88" type="line"/>
      <point x="330" y="84" type="line"/>
      <point x="281" y="81" type="line"/>
      <point x="156" y="21" type="line"/>
    </contour>
    <contour>
      <point x="476" y="237" type="line"/>
      <point x="156" y="21" type="line"/>
      <point x="327" y="-49" type="line"/>
      <point x="620" y="188" type="line"/>
    </contour>
    <contour>
      <point x="765" y="538" type="line"/>
      <point x="790" y="587" type="line"/>
      <point x="725" y="670" type="line"/>
      <point x="429" y="670" type="line"/>
      <point x="404" y="621" type="line"/>
      <point x="469" y="538" type="line"/>
    </contour>
    <contour>
      <point x="387" y="542" type="line"/>
      <point x="332" y="630"/>
      <point x="273" y="702"/>
      <point x="172" y="702" type="curve" smooth="yes"/>
      <point x="74" y="702"/>
      <point x="10" y="634"/>
      <point x="10" y="553" type="curve" smooth="yes"/>
      <point x="10" y="461"/>
      <point x="94" y="376"/>
      <point x="230" y="324" type="curve"/>
      <point x="269" y="380" type="line"/>
      <point x="219" y="404"/>
      <point x="193" y="456"/>
      <point x="193" y="493" type="curve" smooth="yes"/>
      <point x="193" y="529"/>
      <point x="217" y="560"/>
      <point x="264" y="553" type="curve"/>
      <point x="284" y="533"/>
      <point x="301" y="508"/>
      <point x="318" y="484" type="curve"/>
    </contour>
    <contour>
      <point x="434" y="340" type="line"/>
      <point x="362" y="459" type="line"/>
      <point x="204" y="494"/>
      <point x="93" y="398"/>
      <point x="93" y="293" type="curve" smooth="yes"/>
      <point x="93" y="217"/>
      <point x="151" y="151"/>
      <point x="220" y="110" type="curve" smooth="yes"/>
      <point x="274" y="78"/>
      <point x="331" y="64"/>
      <point x="381" y="64" type="curve" smooth="yes"/>
      <point x="407" y="64"/>
      <point x="432" y="68"/>
      <point x="455" y="75" type="curve"/>
      <point x="608" y="201" type="line"/>
      <point x="527" y="338" type="line"/>
      <point x="493" y="274"/>
      <point x="359" y="170"/>
      <point x="270" y="205" type="curve"/>
      <point x="250" y="247"/>
      <point x="303" y="303"/>
      <point x="409" y="291" type="curve"/>
    </contour>
    <component base="dvYa" xOffset="470"/>
    <contour>
      <point x="831" y="670" type="move" name="abvmBINDU"/>
    </contour>
    <contour>
      <point x="976" y="475" type="move" name="abvmTOP"/>
    </contour>
    <contour>
      <point x="861" y="670" type="move" name="abvmCANDRABINDU"/>
    </contour>
    <contour>
      <point x="1281" y="670" type="move" name="abvmCANDRABINDU2"/>
    </contour>
    <contour>
      <point x="871" y="0" type="move" name="blwmBOTTOM"/>
    </contour>
  </outline>
</glyph>
