<?xml version="1.0" encoding="UTF-8"?>
<glyph name="etagrave" format="1">
  <advance width="567.0138912713048"/>
  <unicode hex="1F74"/>
  <note>
  </note>
  <outline>
    <component base="eta"/>
    <component base="gr:grave" xOffset="188.0"/>
  </outline>
  <lib>
    <dict>
      <key>com.typemytype.robofont.mark</key>
      <array>
        <real>0.4</real>
        <real>1.0</real>
        <real>0.8</real>
        <real>1.0</real>
      </array>
    </dict>
  </lib>
</glyph>
