<?xml version="1.0" encoding="UTF-8"?>
<glyph name="lamda" format="1">
  <advance width="583"/>
  <unicode hex="03BB"/>
  <outline>
    <contour>
      <point x="3" y="72" type="line"/>
      <point x="29" y="28"/>
      <point x="91" y="-12"/>
      <point x="135" y="-14" type="curve"/>
      <point x="174" y="17" type="line"/>
      <point x="292" y="380" type="line"/>
      <point x="232" y="492" type="line"/>
    </contour>
    <contour>
      <point x="74" y="528" type="line"/>
      <point x="199" y="579" type="line"/>
      <point x="150" y="627" type="line"/>
      <point x="166" y="600"/>
      <point x="178" y="571"/>
      <point x="191" y="533" type="curve" smooth="yes"/>
      <point x="206" y="489"/>
      <point x="219" y="438"/>
      <point x="236" y="399" type="curve" smooth="yes"/>
      <point x="366" y="106" type="line" smooth="yes"/>
      <point x="404" y="19"/>
      <point x="435" y="-14"/>
      <point x="477" y="-14" type="curve" smooth="yes"/>
      <point x="525" y="-14"/>
      <point x="578" y="40"/>
      <point x="599" y="110" type="curve"/>
      <point x="577" y="158" type="line"/>
      <point x="417" y="143" type="line"/>
      <point x="469" y="104" type="line"/>
      <point x="385" y="453" type="line" smooth="yes"/>
      <point x="335" y="660"/>
      <point x="263" y="735"/>
      <point x="116" y="735" type="curve" smooth="yes"/>
      <point x="78" y="735"/>
      <point x="27" y="725"/>
      <point x="-3" y="713" type="curve"/>
      <point x="-3" y="663"/>
      <point x="14" y="592"/>
      <point x="36" y="550" type="curve"/>
    </contour>
  </outline>
  <lib>
    <dict>
      <key>com.typemytype.robofont.mark</key>
      <array>
        <real>0.4</real>
        <real>1.0</real>
        <real>0.8</real>
        <real>1.0</real>
      </array>
    </dict>
  </lib>
</glyph>
