<?xml version="1.0" encoding="UTF-8"?>
<glyph name="dvDBa" format="1">
  <advance width="639"/>
  <outline>
    <contour>
      <point x="433" y="-182" type="line"/>
      <point x="490" y="-153" type="line"/>
      <point x="263" y="-12" type="line"/>
      <point x="202" y="-36" type="line"/>
    </contour>
    <contour>
      <point x="471" y="197" type="line"/>
      <point x="425" y="129"/>
      <point x="332" y="83"/>
      <point x="234" y="125" type="curve"/>
      <point x="220" y="145"/>
      <point x="212" y="169"/>
      <point x="212" y="192" type="curve" smooth="yes"/>
      <point x="212" y="245"/>
      <point x="253" y="295"/>
      <point x="343" y="295" type="curve" smooth="yes"/>
      <point x="521" y="295" type="line"/>
      <point x="435" y="465" type="line"/>
      <point x="283" y="465" type="line" smooth="yes"/>
      <point x="93" y="465"/>
      <point x="34" y="351"/>
      <point x="34" y="258" type="curve" smooth="yes"/>
      <point x="34" y="159"/>
      <point x="101" y="77"/>
      <point x="186" y="26" type="curve" smooth="yes"/>
      <point x="227" y="1"/>
      <point x="273" y="-17"/>
      <point x="317" y="-26" type="curve"/>
      <point x="523" y="34" type="line"/>
    </contour>
    <contour>
      <point x="347" y="337" type="line"/>
      <point x="521" y="295" type="line"/>
      <point x="521" y="486" type="line"/>
      <point x="401" y="568" type="line"/>
      <point x="347" y="599" type="line"/>
    </contour>
    <contour>
      <point x="679" y="538" type="line"/>
      <point x="704" y="587" type="line"/>
      <point x="639" y="670" type="line"/>
      <point x="-40" y="670" type="line"/>
      <point x="-65" y="621" type="line"/>
      <point x="0" y="538" type="line"/>
    </contour>
    <contour>
      <point x="377" y="223" type="line"/>
      <point x="405" y="15" type="line"/>
      <point x="482" y="-14" type="line"/>
      <point x="527" y="1"/>
      <point x="585" y="41"/>
      <point x="614" y="94" type="curve"/>
      <point x="490" y="262" type="line"/>
    </contour>
    <contour>
      <point x="409" y="81" type="line"/>
      <point x="531" y="-319" type="line"/>
      <point x="650" y="-264" type="line"/>
      <point x="481" y="133" type="line"/>
    </contour>
    <contour>
      <point x="302" y="74" type="line"/>
      <point x="196" y="69"/>
      <point x="96" y="4"/>
      <point x="96" y="-92" type="curve" smooth="yes"/>
      <point x="96" y="-204"/>
      <point x="231" y="-293"/>
      <point x="356" y="-293" type="curve" smooth="yes"/>
      <point x="463" y="-293"/>
      <point x="516" y="-228"/>
      <point x="553" y="-144" type="curve"/>
      <point x="432" y="-11" type="line"/>
      <point x="444" y="-94"/>
      <point x="361" y="-175"/>
      <point x="268" y="-174" type="curve"/>
      <point x="255" y="-163"/>
      <point x="252" y="-147"/>
      <point x="252" y="-137" type="curve" smooth="yes"/>
      <point x="252" y="-73"/>
      <point x="381" y="2"/>
      <point x="477" y="-33" type="curve"/>
      <point x="486" y="35" type="line"/>
    </contour>
    <contour>
      <point x="469" y="670" type="move" name="abvmBINDU"/>
    </contour>
    <contour>
      <point x="464" y="475" type="move" name="abvmTOP"/>
    </contour>
    <contour>
      <point x="449" y="670" type="move" name="abvmCANDRABINDU"/>
    </contour>
    <contour>
      <point x="769" y="670" type="move" name="abvmCANDRABINDU2"/>
    </contour>
    <contour>
      <point x="393" y="-339" type="move" name="blwmBOTTOM"/>
    </contour>
  </outline>
</glyph>
