<?xml version="1.0" encoding="UTF-8"?>
<glyph name="Upsilon" format="1">
  <advance width="597"/>
  <unicode hex="03A5"/>
  <outline>
    <contour>
      <point x="33" y="650" type="line"/>
      <point x="262" y="226" type="line"/>
      <point x="331" y="282" type="line"/>
      <point x="318" y="308" type="line"/>
      <point x="302" y="307" type="line"/>
      <point x="276" y="388" type="line"/>
      <point x="137" y="650" type="line"/>
    </contour>
    <contour>
      <point x="1" y="650" type="line"/>
      <point x="0" y="603" type="line"/>
      <point x="138" y="587" type="line"/>
      <point x="141" y="650" type="line"/>
    </contour>
    <contour>
      <point x="114" y="650" type="line"/>
      <point x="135" y="583" type="line"/>
      <point x="168" y="593"/>
      <point x="204" y="604"/>
      <point x="234" y="618" type="curve"/>
      <point x="228" y="650" type="line"/>
    </contour>
    <contour>
      <point x="477" y="650" type="line"/>
      <point x="288" y="269" type="line"/>
      <point x="336" y="240" type="line"/>
      <point x="558" y="650" type="line"/>
    </contour>
    <contour>
      <point x="371" y="650" type="line"/>
      <point x="370" y="603" type="line"/>
      <point x="508" y="587" type="line"/>
      <point x="511" y="650" type="line"/>
    </contour>
    <contour>
      <point x="477" y="650" type="line"/>
      <point x="498" y="583" type="line"/>
      <point x="531" y="593"/>
      <point x="567" y="604"/>
      <point x="597" y="618" type="curve"/>
      <point x="591" y="650" type="line"/>
    </contour>
    <contour>
      <point x="248" y="0" type="line"/>
      <point x="341" y="0" type="line"/>
      <point x="341" y="277" type="line"/>
      <point x="248" y="277" type="line"/>
    </contour>
    <contour>
      <point x="236" y="57"/>
      <point x="200" y="46"/>
      <point x="170" y="32" type="curve"/>
      <point x="176" y="0" type="line"/>
      <point x="270" y="0" type="line"/>
      <point x="269" y="67" type="line"/>
    </contour>
    <contour>
      <point x="282" y="0" type="line"/>
      <point x="422" y="0" type="line"/>
      <point x="423" y="47" type="line"/>
      <point x="285" y="63" type="line"/>
    </contour>
    <contour>
      <point x="304.0" y="650.0" type="move" name="top"/>
    </contour>
  </outline>
  <lib>
    <dict>
      <key>com.schriftgestaltung.Glyphs.ColorIndex</key>
      <integer>3</integer>
      <key>com.schriftgestaltung.Glyphs.leftMetricsKey</key>
      <string>V</string>
      <key>com.schriftgestaltung.Glyphs.rightMetricsKey</key>
      <string>V</string>
      <key>com.typemytype.robofont.mark</key>
      <array>
        <real>0.4</real>
        <real>1.0</real>
        <real>0.8</real>
        <real>1.0</real>
      </array>
      <key>public.markColor</key>
      <string>0.97,1,0,1</string>
    </dict>
  </lib>
</glyph>
