<?xml version="1.0" encoding="UTF-8"?>
<glyph name="caron" format="1">
  <advance width="413"/>
  <unicode hex="02C7"/>
  <outline>
    <component base="caroncomb" xOffset="218"/>
  </outline>
  <lib>
    <dict>
      <key>com.schriftgestaltung.Glyphs.ColorIndex</key>
      <integer>3</integer>
      <key>public.markColor</key>
      <string>0.97,1,0,1</string>
    </dict>
  </lib>
</glyph>
