<?xml version="1.0" encoding="UTF-8"?>
<glyph name="dvGlottalStop" format="1">
  <advance width="550"/>
  <unicode hex="097D"/>
  <outline>
    <contour>
      <point x="206" y="626"/>
      <point x="144" y="602"/>
      <point x="81" y="552" type="curve"/>
      <point x="132" y="457" type="line"/>
      <point x="191" y="505"/>
      <point x="290" y="541"/>
      <point x="341" y="535" type="curve"/>
      <point x="416" y="464"/>
      <point x="387" y="332"/>
      <point x="202" y="297" type="curve"/>
      <point x="231" y="192" type="line"/>
      <point x="391" y="231"/>
      <point x="477" y="308"/>
      <point x="477" y="415" type="curve" smooth="yes"/>
      <point x="477" y="539"/>
      <point x="363" y="626"/>
      <point x="260" y="626" type="curve" smooth="yes"/>
    </contour>
    <contour>
      <point x="202" y="10" type="line"/>
      <point x="273" y="-36" type="line"/>
      <point x="304" y="-24" type="line"/>
      <point x="304" y="246" type="line"/>
      <point x="202" y="297" type="line"/>
    </contour>
  </outline>
</glyph>
