<?xml version="1.0" encoding="UTF-8"?>
<glyph name="dvSh.MAR" format="1">
  <advance width="520"/>
  <outline>
    <contour>
      <point x="458" y="-25" type="line"/>
      <point x="243" y="125" type="line"/>
      <point x="162" y="91" type="line"/>
      <point x="411" y="-95" type="line"/>
      <point x="459" y="-52" type="line"/>
    </contour>
    <contour>
      <point x="547" y="538" type="line"/>
      <point x="560" y="565" type="line"/>
      <point x="521" y="624" type="line"/>
      <point x="-26" y="624" type="line"/>
      <point x="-39" y="596" type="line"/>
      <point x="0" y="538" type="line"/>
    </contour>
    <contour>
      <point x="92" y="306" type="line"/>
      <point x="163" y="360"/>
      <point x="273" y="404"/>
      <point x="335" y="402" type="curve"/>
      <point x="358" y="386"/>
      <point x="373" y="349"/>
      <point x="373" y="321" type="curve" smooth="yes"/>
      <point x="373" y="249"/>
      <point x="286" y="161"/>
      <point x="130" y="167" type="curve"/>
      <point x="222" y="69" type="line"/>
      <point x="383" y="86"/>
      <point x="472" y="185"/>
      <point x="472" y="283" type="curve" smooth="yes"/>
      <point x="472" y="391"/>
      <point x="366" y="492"/>
      <point x="256" y="492" type="curve" smooth="yes"/>
      <point x="180" y="492"/>
      <point x="83" y="443"/>
      <point x="36" y="404" type="curve"/>
    </contour>
    <contour>
      <point x="250" y="124" type="line"/>
      <point x="147" y="230" type="line"/>
      <point x="110" y="222" type="line"/>
      <point x="72" y="100" type="line"/>
      <point x="100" y="76"/>
      <point x="189" y="61"/>
      <point x="223" y="69" type="curve"/>
    </contour>
    <contour>
      <point x="229" y="460" type="line"/>
      <point x="333" y="441" type="line"/>
      <point x="333" y="553" type="line"/>
      <point x="264" y="555" type="line"/>
      <point x="229" y="571" type="line"/>
    </contour>
  </outline>
</glyph>
