<?xml version="1.0" encoding="UTF-8"?>
<glyph name="iotatilde" format="1">
  <advance width="267"/>
  <unicode hex="1FD6"/>
  <note>
  </note>
  <outline>
    <component base="iota"/>
    <component base="gr:tilde" xOffset="-51.0"/>
  </outline>
  <lib>
    <dict>
      <key>com.typemytype.robofont.mark</key>
      <array>
        <real>1.0</real>
        <real>0.8</real>
        <real>0.4</real>
        <real>1.0</real>
      </array>
    </dict>
  </lib>
</glyph>
