<?xml version="1.0" encoding="UTF-8"?>
<glyph name="dvGNa" format="1">
  <advance width="695"/>
  <outline>
    <contour>
      <point x="8" y="339" type="line"/>
      <point x="36" y="253"/>
      <point x="153" y="153"/>
      <point x="239" y="128" type="curve"/>
      <point x="304" y="171" type="line"/>
      <point x="304" y="355" type="line"/>
      <point x="237" y="397" type="line"/>
      <point x="44" y="397" type="line"/>
    </contour>
    <contour>
      <point x="434" y="23" type="line"/>
      <point x="566" y="-46" type="line"/>
      <point x="620" y="-19" type="line"/>
      <point x="620" y="486" type="line"/>
      <point x="500" y="568" type="line"/>
      <point x="434" y="599" type="line"/>
    </contour>
    <contour>
      <point x="730" y="538" type="line"/>
      <point x="755" y="587" type="line"/>
      <point x="690" y="670" type="line"/>
      <point x="-40" y="670" type="line"/>
      <point x="-65" y="621" type="line"/>
      <point x="0" y="538" type="line"/>
    </contour>
    <contour>
      <point x="126" y="277" type="line"/>
      <point x="304" y="235" type="line"/>
      <point x="304" y="486" type="line"/>
      <point x="184" y="568" type="line"/>
      <point x="118" y="599" type="line"/>
    </contour>
    <contour>
      <point x="452" y="240" type="line" smooth="yes"/>
      <point x="126" y="19" type="line"/>
      <point x="262" y="-72" type="line"/>
      <point x="564" y="148" type="line"/>
    </contour>
    <contour>
      <point x="124" y="-46" type="line"/>
      <point x="167" y="-98"/>
      <point x="268" y="-139"/>
      <point x="340" y="-140" type="curve"/>
      <point x="376" y="-92" type="line"/>
      <point x="294" y="65" type="line"/>
      <point x="245" y="65" type="line"/>
      <point x="126" y="19" type="line"/>
    </contour>
    <contour>
      <point x="370" y="670" type="move" name="abvmBINDU"/>
    </contour>
    <contour>
      <point x="515" y="475" type="move" name="abvmTOP"/>
    </contour>
    <contour>
      <point x="400" y="670" type="move" name="abvmCANDRABINDU"/>
    </contour>
    <contour>
      <point x="820" y="670" type="move" name="abvmCANDRABINDU2"/>
    </contour>
    <contour>
      <point x="410" y="-130" type="move" name="blwmBOTTOM"/>
    </contour>
  </outline>
</glyph>
