<?xml version="1.0" encoding="UTF-8"?>
<glyph name="Epsilonlenisgrave" format="1">
  <advance width="670"/>
  <unicode hex="1F1A"/>
  <note>
  </note>
  <outline>
    <component base="Epsilon"/>
    <component base="lenisgrave.case" xOffset="-280.0"/>
  </outline>
  <lib>
    <dict>
      <key>com.typemytype.robofont.mark</key>
      <array>
        <real>0.4</real>
        <real>1.0</real>
        <real>0.8</real>
        <real>1.0</real>
      </array>
    </dict>
  </lib>
</glyph>
