<?xml version="1.0" encoding="UTF-8"?>
<glyph name="iotaadscript.case" format="1">
  <advance width="265"/>
  <outline>
    <contour>
      <point x="44" y="-103" type="line" smooth="yes"/>
      <point x="54" y="-175"/>
      <point x="86" y="-222"/>
      <point x="137" y="-222" type="curve" smooth="yes"/>
      <point x="175" y="-222"/>
      <point x="212" y="-191"/>
      <point x="229" y="-152" type="curve"/>
      <point x="209" y="-119" type="line"/>
      <point x="118" y="-142" type="line"/>
      <point x="131" y="-164" type="line"/>
      <point x="206" y="-62" type="line"/>
      <point x="185" y="-28" type="line"/>
      <point x="116" y="-28"/>
      <point x="72" y="-33"/>
      <point x="37" y="-51" type="curve"/>
    </contour>
    <contour>
      <point x="111" y="0" type="move" name="_bottom"/>
    </contour>
  </outline>
  <lib>
    <dict>
      <key>com.typemytype.robofont.mark</key>
      <array>
        <real>0.4</real>
        <real>1.0</real>
        <real>0.8</real>
        <real>1.0</real>
      </array>
    </dict>
  </lib>
</glyph>
