<?xml version="1.0" encoding="UTF-8"?>
<glyph name="dvDhNYa" format="1">
  <advance width="1116"/>
  <outline>
    <contour>
      <point x="165" y="-43" type="line"/>
      <point x="211" y="-90"/>
      <point x="300" y="-129"/>
      <point x="374" y="-130" type="curve"/>
      <point x="406" y="-82" type="line"/>
      <point x="322" y="73" type="line"/>
      <point x="268" y="69" type="line"/>
      <point x="163" y="20" type="line"/>
    </contour>
    <contour>
      <point x="478" y="231" type="line"/>
      <point x="163" y="20" type="line"/>
      <point x="310" y="-42" type="line"/>
      <point x="604" y="189" type="line"/>
    </contour>
    <contour>
      <point x="710" y="538" type="line"/>
      <point x="731" y="580" type="line"/>
      <point x="675" y="655" type="line"/>
      <point x="409" y="655" type="line"/>
      <point x="388" y="613" type="line"/>
      <point x="444" y="538" type="line"/>
    </contour>
    <contour>
      <point x="374" y="526" type="line"/>
      <point x="321" y="620"/>
      <point x="263" y="684"/>
      <point x="170" y="684" type="curve" smooth="yes"/>
      <point x="79" y="684"/>
      <point x="18" y="622"/>
      <point x="18" y="544" type="curve" smooth="yes"/>
      <point x="18" y="458"/>
      <point x="95" y="380"/>
      <point x="224" y="324" type="curve"/>
      <point x="262" y="375" type="line"/>
      <point x="203" y="404"/>
      <point x="176" y="455"/>
      <point x="176" y="493" type="curve" smooth="yes"/>
      <point x="176" y="532"/>
      <point x="205" y="563"/>
      <point x="252" y="555" type="curve"/>
      <point x="276" y="534"/>
      <point x="294" y="506"/>
      <point x="312" y="477" type="curve"/>
    </contour>
    <contour>
      <point x="420" y="340" type="line"/>
      <point x="354" y="444" type="line"/>
      <point x="198" y="476"/>
      <point x="99" y="382"/>
      <point x="99" y="286" type="curve" smooth="yes"/>
      <point x="99" y="216"/>
      <point x="153" y="153"/>
      <point x="214" y="115" type="curve" smooth="yes"/>
      <point x="264" y="84"/>
      <point x="318" y="71"/>
      <point x="368" y="71" type="curve" smooth="yes"/>
      <point x="394" y="71"/>
      <point x="417" y="74"/>
      <point x="439" y="81" type="curve"/>
      <point x="595" y="204" type="line"/>
      <point x="526" y="323" type="line"/>
      <point x="484" y="253"/>
      <point x="347" y="157"/>
      <point x="259" y="193" type="curve"/>
      <point x="225" y="243"/>
      <point x="280" y="315"/>
      <point x="399" y="299" type="curve"/>
    </contour>
    <component base="dvYa" xOffset="458"/>
    <contour>
      <point x="809" y="660" type="move" name="abvmBINDU"/>
    </contour>
    <contour>
      <point x="951" y="473" type="move" name="abvmTOP"/>
    </contour>
    <contour>
      <point x="838" y="660" type="move" name="abvmCANDRABINDU"/>
    </contour>
    <contour>
      <point x="1218" y="660" type="move" name="abvmCANDRABINDU2"/>
    </contour>
    <contour>
      <point x="859" y="1" type="move" name="blwmBOTTOM"/>
    </contour>
  </outline>
</glyph>
