<?xml version="1.0" encoding="UTF-8"?>
<glyph name="rho" format="1">
  <advance width="518.0"/>
  <unicode hex="03C1"/>
  <outline>
    <contour>
      <point x="59" y="-224" type="line"/>
      <point x="117" y="-222"/>
      <point x="182" y="-205"/>
      <point x="212" y="-187" type="curve"/>
      <point x="112" y="121" type="line"/>
      <point x="134" y="142" type="line"/>
      <point x="131" y="162"/>
      <point x="130" y="181"/>
      <point x="130" y="206" type="curve" smooth="yes"/>
      <point x="130" y="281"/>
      <point x="195" y="325"/>
      <point x="305" y="325" type="curve" smooth="yes"/>
      <point x="342" y="325"/>
      <point x="375" y="321"/>
      <point x="400" y="311" type="curve"/>
      <point x="409" y="300"/>
      <point x="413" y="282"/>
      <point x="413" y="264" type="curve" smooth="yes"/>
      <point x="413" y="198"/>
      <point x="348" y="155"/>
      <point x="232" y="155" type="curve" smooth="yes"/>
      <point x="194" y="155"/>
      <point x="158" y="162"/>
      <point x="123" y="175" type="curve"/>
      <point x="103" y="126" type="line"/>
      <point x="142" y="39"/>
      <point x="209" y="-20"/>
      <point x="279" y="-20" type="curve" smooth="yes"/>
      <point x="395" y="-20"/>
      <point x="499" y="103"/>
      <point x="499" y="250" type="curve" smooth="yes"/>
      <point x="499" y="398"/>
      <point x="406" y="501"/>
      <point x="269" y="501" type="curve" smooth="yes"/>
      <point x="132" y="501"/>
      <point x="37" y="390"/>
      <point x="37" y="230" type="curve" smooth="yes"/>
      <point x="37" y="163"/>
      <point x="36" y="114"/>
      <point x="34" y="7" type="curve" smooth="yes"/>
      <point x="28" y="-200" type="line"/>
    </contour>
    <contour>
      <point x="288" y="473" type="move" name="top"/>
    </contour>
  </outline>
  <lib>
    <dict>
      <key>com.typemytype.robofont.mark</key>
      <array>
        <real>0.4</real>
        <real>1.0</real>
        <real>0.8</real>
        <real>1.0</real>
      </array>
    </dict>
  </lib>
</glyph>
