<?xml version="1.0" encoding="UTF-8"?>
<glyph name="tonos" format="1">
  <advance width="365"/>
  <unicode hex="0384"/>
  <outline>
    <contour>
      <point x="250" y="752" type="line"/>
      <point x="229" y="770"/>
      <point x="201" y="784"/>
      <point x="169" y="785" type="curve"/>
      <point x="105" y="566" type="line"/>
      <point x="140" y="549" type="line"/>
      <point x="250" y="734" type="line"/>
    </contour>
    <contour>
      <point x="145" y="468" type="move" name="_top"/>
    </contour>
  </outline>
  <lib>
    <dict>
      <key>com.typemytype.robofont.mark</key>
      <array>
        <real>0.4</real>
        <real>1.0</real>
        <real>0.8</real>
        <real>1.0</real>
      </array>
    </dict>
  </lib>
</glyph>
