<?xml version="1.0" encoding="UTF-8"?>
<glyph name="Upsilon" format="1">
  <advance width="597"/>
  <unicode hex="03A5"/>
  <outline>
    <component base="Y"/>
  </outline>
  <lib>
    <dict>
      <key>com.schriftgestaltung.Glyphs.ColorIndex</key>
      <integer>3</integer>
      <key>com.schriftgestaltung.Glyphs.leftMetricsKey</key>
      <string>V</string>
      <key>com.schriftgestaltung.Glyphs.rightMetricsKey</key>
      <string>V</string>
      <key>com.typemytype.robofont.mark</key>
      <array>
        <real>0.4</real>
        <real>1.0</real>
        <real>0.8</real>
        <real>1.0</real>
      </array>
      <key>public.markColor</key>
      <string>0.97,1,0,1</string>
    </dict>
  </lib>
</glyph>
