<?xml version="1.0" encoding="UTF-8"?>
<glyph name="Etalenisgraveiotasub" format="1">
  <advance width="751"/>
  <unicode hex="1F9A"/>
  <note>
  </note>
  <outline>
    <component base="Eta"/>
    <component base="lenisgrave.case" xOffset="-190.0"/>
    <component base="iotaadscript.case" xOffset="264.0"/>
  </outline>
  <lib>
    <dict>
      <key>com.typemytype.robofont.mark</key>
      <array>
        <real>0.4</real>
        <real>1.0</real>
        <real>0.8</real>
        <real>1.0</real>
      </array>
    </dict>
  </lib>
</glyph>
