<?xml version="1.0" encoding="UTF-8"?>
<glyph name="gr:grave" format="1">
  <advance width="365"/>
  <unicode hex="1FEF"/>
  <outline>
    <component base="tonos" xScale="-1" xOffset="360"/>
    <contour>
      <point x="241" y="468" type="move" name="_top"/>
    </contour>
  </outline>
  <lib>
    <dict>
      <key>com.typemytype.robofont.mark</key>
      <array>
        <real>0.4</real>
        <real>1.0</real>
        <real>0.8</real>
        <real>1.0</real>
      </array>
    </dict>
  </lib>
</glyph>
