<?xml version="1.0" encoding="UTF-8"?>
<glyph name="lenis.case" format="1">
  <advance width="365"/>
  <outline>
    <contour>
      <point x="55" y="418" type="line"/>
      <point x="123" y="452"/>
      <point x="159" y="515"/>
      <point x="159" y="569" type="curve" smooth="yes"/>
      <point x="159" y="609"/>
      <point x="132" y="645"/>
      <point x="93" y="654" type="curve"/>
      <point x="58" y="637"/>
      <point x="45" y="613"/>
      <point x="39" y="578" type="curve"/>
      <point x="91" y="538" type="line"/>
      <point x="87" y="503"/>
      <point x="72" y="481"/>
      <point x="35" y="447" type="curve"/>
    </contour>
    <contour>
      <point x="78.0" y="343.0" type="move" name="_left"/>
    </contour>
  </outline>
  <lib>
    <dict>
      <key>com.typemytype.robofont.mark</key>
      <array>
        <real>0.4</real>
        <real>1.0</real>
        <real>0.8</real>
        <real>1.0</real>
      </array>
    </dict>
  </lib>
</glyph>
