<?xml version="1.0" encoding="UTF-8"?>
<glyph name="Upsilonasper" format="1">
  <advance width="615"/>
  <unicode hex="1F59"/>
  <note>
  </note>
  <outline>
    <component base="Upsilon"/>
    <component base="asper.case" xOffset="-204.0"/>
  </outline>
  <lib>
    <dict>
      <key>com.typemytype.robofont.mark</key>
      <array>
        <real>0.4</real>
        <real>1.0</real>
        <real>0.8</real>
        <real>1.0</real>
      </array>
    </dict>
  </lib>
</glyph>
