<?xml version="1.0" encoding="UTF-8"?>
<glyph name="dvCa" format="1">
  <advance width="738"/>
  <unicode hex="091A"/>
  <outline>
    <contour>
      <point x="243" y="445" type="line"/>
      <point x="163" y="414"/>
      <point x="106" y="361"/>
      <point x="106" y="289" type="curve" smooth="yes"/>
      <point x="106" y="220"/>
      <point x="158" y="155"/>
      <point x="227" y="114" type="curve" smooth="yes"/>
      <point x="280" y="82"/>
      <point x="345" y="63"/>
      <point x="408" y="63" type="curve" smooth="yes"/>
      <point x="476" y="63"/>
      <point x="528" y="86"/>
      <point x="565" y="126" type="curve"/>
      <point x="494" y="324" type="line"/>
      <point x="466" y="260"/>
      <point x="371" y="189"/>
      <point x="283" y="205" type="curve"/>
      <point x="269" y="273"/>
      <point x="320" y="339"/>
      <point x="402" y="352" type="curve"/>
    </contour>
    <contour>
      <point x="482" y="23" type="line"/>
      <point x="614" y="-46" type="line"/>
      <point x="668" y="-19" type="line"/>
      <point x="668" y="486" type="line"/>
      <point x="548" y="568" type="line"/>
      <point x="482" y="599" type="line"/>
    </contour>
    <contour>
      <point x="778" y="538" type="line"/>
      <point x="803" y="587" type="line"/>
      <point x="738" y="670" type="line"/>
      <point x="-40" y="670" type="line"/>
      <point x="-65" y="621" type="line"/>
      <point x="0" y="538" type="line"/>
    </contour>
    <contour>
      <point x="184" y="345" type="line"/>
      <point x="218" y="328" type="line"/>
      <point x="426" y="328" type="line"/>
      <point x="451" y="377" type="line"/>
      <point x="379" y="480" type="line"/>
      <point x="3" y="480" type="line"/>
      <point x="-22" y="431" type="line"/>
      <point x="41" y="345" type="line"/>
    </contour>
    <contour>
      <point x="568" y="670" type="move" name="abvmBINDU"/>
    </contour>
    <contour>
      <point x="563" y="475" type="move" name="abvmTOP"/>
    </contour>
    <contour>
      <point x="548" y="670" type="move" name="abvmCANDRABINDU"/>
    </contour>
    <contour>
      <point x="868" y="670" type="move" name="abvmCANDRABINDU2"/>
    </contour>
    <contour>
      <point x="458" y="0" type="move" name="blwmBOTTOM"/>
    </contour>
  </outline>
</glyph>
