<?xml version="1.0" encoding="UTF-8"?>
<glyph name="dvGDhYa" format="1">
  <advance width="1513"/>
  <outline>
    <contour>
      <point x="8" y="299" type="line"/>
      <point x="36" y="213"/>
      <point x="153" y="113"/>
      <point x="239" y="88" type="curve"/>
      <point x="304" y="125" type="line"/>
      <point x="304" y="315" type="line"/>
      <point x="237" y="357" type="line"/>
      <point x="44" y="357" type="line"/>
    </contour>
    <contour>
      <point x="370" y="538" type="line"/>
      <point x="395" y="587" type="line"/>
      <point x="330" y="670" type="line"/>
      <point x="-40" y="670" type="line"/>
      <point x="-65" y="621" type="line"/>
      <point x="0" y="538" type="line"/>
    </contour>
    <contour>
      <point x="126" y="237" type="line"/>
      <point x="304" y="195" type="line"/>
      <point x="304" y="486" type="line"/>
      <point x="184" y="568" type="line"/>
      <point x="118" y="599" type="line"/>
    </contour>
    <component base="dvDh" xOffset="358"/>
    <component base="dvYa" xOffset="832"/>
    <contour>
      <point x="1193" y="670" type="move" name="abvmBINDU"/>
    </contour>
    <contour>
      <point x="1338" y="475" type="move" name="abvmTOP"/>
    </contour>
    <contour>
      <point x="1223" y="670" type="move" name="abvmCANDRABINDU"/>
    </contour>
    <contour>
      <point x="1643" y="670" type="move" name="abvmCANDRABINDU2"/>
    </contour>
    <contour>
      <point x="1233" y="0" type="move" name="blwmBOTTOM"/>
    </contour>
  </outline>
</glyph>
