<?xml version="1.0" encoding="UTF-8"?>
<glyph name="alphatildeiotasub" format="1">
  <advance width="541"/>
  <unicode hex="1FB7"/>
  <note>
  </note>
  <outline>
    <component base="alpha"/>
    <component base="gr:tilde" xOffset="90.0"/>
    <component base="iotaadscript" xOffset="123.0"/>
  </outline>
  <lib>
    <dict>
      <key>com.typemytype.robofont.mark</key>
      <array>
        <real>0.4</real>
        <real>1.0</real>
        <real>0.8</real>
        <real>1.0</real>
      </array>
    </dict>
  </lib>
</glyph>
