<?xml version="1.0" encoding="UTF-8"?>
<glyph name="omegaaspertildeiotasub" format="1">
  <advance width="660"/>
  <unicode hex="1FA7"/>
  <note>
  </note>
  <outline>
    <component base="omega"/>
    <component base="aspertilde" xOffset="135"/>
    <component base="iotaadscript" xOffset="214.0"/>
  </outline>
  <lib>
    <dict>
      <key>com.typemytype.robofont.mark</key>
      <array>
        <real>0.4</real>
        <real>1.0</real>
        <real>0.8</real>
        <real>1.0</real>
      </array>
    </dict>
  </lib>
</glyph>
