<?xml version="1.0" encoding="UTF-8"?>
<glyph name="dvMatraUu" format="1">
  <advance width="0"/>
  <unicode hex="0942"/>
  <outline>
    <contour>
      <point x="-128" y="-138" type="line"/>
      <point x="-232" y="-203" type="line"/>
      <point x="-248" y="-189"/>
      <point x="-255" y="-172"/>
      <point x="-255" y="-155" type="curve" smooth="yes"/>
      <point x="-255" y="-117"/>
      <point x="-221" y="-77"/>
      <point x="-165" y="-77" type="curve" smooth="yes"/>
      <point x="-92" y="-77"/>
      <point x="-45" y="-146"/>
      <point x="70" y="-301" type="curve"/>
      <point x="119" y="-263" type="line"/>
      <point x="13" y="-109"/>
      <point x="-74" y="18"/>
      <point x="-189" y="18" type="curve" smooth="yes"/>
      <point x="-266" y="18"/>
      <point x="-338" y="-40"/>
      <point x="-338" y="-117" type="curve" smooth="yes"/>
      <point x="-338" y="-198"/>
      <point x="-258" y="-269"/>
      <point x="-181" y="-269" type="curve" smooth="yes"/>
      <point x="-144" y="-269"/>
      <point x="-106" y="-253"/>
      <point x="-73" y="-223" type="curve"/>
    </contour>
    <contour>
      <point x="-210" y="0" type="move" name="_blwmBOTTOM"/>
    </contour>
  </outline>
</glyph>
