<?xml version="1.0" encoding="UTF-8"?>
<glyph name="dvTNya" format="1">
  <advance width="944"/>
  <outline>
    <contour>
      <point x="413" y="339" type="line"/>
      <point x="193" y="187" type="line"/>
      <point x="281" y="141" type="line"/>
      <point x="458" y="269" type="line"/>
    </contour>
    <contour>
      <point x="194" y="128" type="line"/>
      <point x="237" y="99"/>
      <point x="295" y="81"/>
      <point x="347" y="76" type="curve"/>
      <point x="378" y="117" type="line"/>
      <point x="310" y="220" type="line"/>
      <point x="253" y="215" type="line"/>
      <point x="193" y="187" type="line"/>
    </contour>
    <contour>
      <point x="444" y="361" type="line"/>
      <point x="378" y="402"/>
      <point x="309" y="421"/>
      <point x="242" y="421" type="curve" smooth="yes"/>
      <point x="100" y="421"/>
      <point x="25" y="336"/>
      <point x="25" y="237" type="curve" smooth="yes"/>
      <point x="25" y="160"/>
      <point x="72" y="68"/>
      <point x="191" y="-41" type="curve"/>
      <point x="243" y="7" type="line"/>
      <point x="147" y="94"/>
      <point x="129" y="153"/>
      <point x="129" y="196" type="curve" smooth="yes"/>
      <point x="129" y="280"/>
      <point x="194" y="318"/>
      <point x="261" y="318" type="curve" smooth="yes"/>
      <point x="304" y="318"/>
      <point x="362" y="303"/>
      <point x="406" y="268" type="curve"/>
    </contour>
    <contour>
      <point x="418" y="538" type="line"/>
      <point x="431" y="565" type="line"/>
      <point x="392" y="624" type="line"/>
      <point x="-26" y="624" type="line"/>
      <point x="-39" y="596" type="line"/>
      <point x="0" y="538" type="line"/>
    </contour>
    <component base="dvYa" xOffset="337"/>
    <contour>
      <point x="669" y="640" type="move" name="abvmBINDU"/>
    </contour>
    <contour>
      <point x="803" y="470" type="move" name="abvmTOP"/>
    </contour>
    <contour>
      <point x="695" y="640" type="move" name="abvmCANDRABINDU"/>
    </contour>
    <contour>
      <point x="995" y="640" type="move" name="abvmCANDRABINDU2"/>
    </contour>
    <contour>
      <point x="739" y="4" type="move" name="blwmBOTTOM"/>
    </contour>
  </outline>
</glyph>
