<?xml version="1.0" encoding="UTF-8"?>
<glyph name="Epsilon" format="1">
  <advance width="590"/>
  <unicode hex="0395"/>
  <outline>
    <component base="E"/>
    <contour>
      <point x="-79" y="343" type="move" name="left"/>
    </contour>
  </outline>
  <lib>
    <dict>
      <key>com.typemytype.robofont.mark</key>
      <array>
        <real>0.4</real>
        <real>1.0</real>
        <real>0.8</real>
        <real>1.0</real>
      </array>
    </dict>
  </lib>
</glyph>
