<?xml version="1.0" encoding="UTF-8"?>
<glyph name="Etaaspertilde" format="1">
  <advance width="777.0"/>
  <unicode hex="1F2F"/>
  <note>
  </note>
  <outline>
    <component base="aspertilde.case" xOffset="-205"/>
    <component base="Eta"/>
  </outline>
  <lib>
    <dict>
      <key>com.typemytype.robofont.mark</key>
      <array>
        <real>0.4</real>
        <real>1.0</real>
        <real>0.8</real>
        <real>1.0</real>
      </array>
    </dict>
  </lib>
</glyph>
