<?xml version="1.0" encoding="UTF-8"?>
<glyph name="hyphen.deva" format="1">
  <advance width="390"/>
  <outline>
    <contour>
      <point x="340" y="240" type="line"/>
      <point x="353" y="267" type="line"/>
      <point x="315" y="331" type="line"/>
      <point x="44" y="331" type="line"/>
      <point x="31" y="303" type="line"/>
      <point x="70" y="240" type="line"/>
    </contour>
  </outline>
</glyph>
