<?xml version="1.0" encoding="UTF-8"?>
<glyph name="ntilde" format="1">
  <advance width="607"/>
  <unicode hex="00F1"/>
  <outline>
    <component base="n"/>
    <component base="tildecomb" xOffset="301" yOffset="-2"/>
  </outline>
  <lib>
    <dict>
      <key>com.schriftgestaltung.Glyphs.ColorIndex</key>
      <integer>3</integer>
      <key>public.markColor</key>
      <string>0.97,1,0,1</string>
    </dict>
  </lib>
</glyph>
