<?xml version="1.0" encoding="UTF-8"?>
<glyph name="omegalenisgraveiotasub" format="1">
  <advance width="675"/>
  <unicode hex="1FA2"/>
  <note>
  </note>
  <outline>
    <component base="lenisgrave" xOffset="145"/>
    <component base="iotaadscript" xOffset="222"/>
    <component base="omega"/>
  </outline>
  <lib>
    <dict>
      <key>com.typemytype.robofont.mark</key>
      <array>
        <real>0.4</real>
        <real>1.0</real>
        <real>0.8</real>
        <real>1.0</real>
      </array>
    </dict>
  </lib>
</glyph>
