<?xml version="1.0" encoding="UTF-8"?>
<glyph name="Omegalenisgrave" format="1">
  <advance width="790"/>
  <unicode hex="1F6A"/>
  <note>
  </note>
  <outline>
    <component base="Omega"/>
    <component base="lenisgrave.case" xOffset="-122"/>
  </outline>
  <lib>
    <dict>
      <key>com.typemytype.robofont.mark</key>
      <array>
        <real>0.4</real>
        <real>1.0</real>
        <real>0.8</real>
        <real>1.0</real>
      </array>
    </dict>
  </lib>
</glyph>
