<?xml version="1.0" encoding="UTF-8"?>
<glyph name="dvLKYa" format="1">
  <advance width="1827"/>
  <outline>
    <component base="dvL"/>
    <component base="dvKYa" xOffset="526"/>
    <contour>
      <point x="1507" y="670" type="move" name="abvmBINDU"/>
    </contour>
    <contour>
      <point x="1652" y="475" type="move" name="abvmTOP"/>
    </contour>
    <contour>
      <point x="1537" y="670" type="move" name="abvmCANDRABINDU"/>
    </contour>
    <contour>
      <point x="1957" y="670" type="move" name="abvmCANDRABINDU2"/>
    </contour>
    <contour>
      <point x="1547" y="0" type="move" name="blwmBOTTOM"/>
    </contour>
  </outline>
</glyph>
