<?xml version="1.0" encoding="UTF-8"?>
<glyph name="l" format="1">
  <advance width="369"/>
  <unicode hex="006C"/>
  <outline>
    <contour>
      <point x="81" y="0" type="line"/>
      <point x="282" y="0" type="line"/>
      <point x="282" y="683" type="line"/>
      <point x="223" y="737" type="line"/>
      <point x="81" y="679" type="line"/>
    </contour>
    <contour>
      <point x="131" y="617" type="line"/>
      <point x="218" y="651" type="line"/>
      <point x="223" y="737" type="line"/>
      <point x="143" y="733"/>
      <point x="68" y="720"/>
      <point x="4" y="698" type="curve"/>
      <point x="6" y="648" type="line"/>
    </contour>
    <contour>
      <point x="353" y="0" type="line"/>
      <point x="354" y="49" type="line"/>
      <point x="312" y="80"/>
      <point x="251" y="102"/>
      <point x="207" y="115" type="curve"/>
      <point x="174" y="0" type="line"/>
    </contour>
    <contour>
      <point x="129" y="0" type="line"/>
      <point x="137" y="88" type="line"/>
      <point x="95" y="79"/>
      <point x="47" y="61"/>
      <point x="5" y="35" type="curve"/>
      <point x="6" y="0" type="line"/>
    </contour>
    <contour>
      <point x="175" y="735" type="move" name="top"/>
    </contour>
    <contour>
      <point x="193" y="0" type="move" name="bottom"/>
    </contour>
    <contour>
      <point x="356" y="468" type="move" name="topright"/>
    </contour>
  </outline>
  <lib>
    <dict>
      <key>com.schriftgestaltung.Glyphs.ColorIndex</key>
      <integer>3</integer>
      <key>com.schriftgestaltung.Glyphs.leftMetricsKey</key>
      <string>n</string>
      <key>public.markColor</key>
      <string>0.97,1,0,1</string>
    </dict>
  </lib>
</glyph>
