<?xml version="1.0" encoding="UTF-8"?>
<glyph name="dvBh" format="1">
  <advance width="438"/>
  <outline>
    <contour>
      <point x="80" y="276" type="line"/>
      <point x="105" y="206"/>
      <point x="198" y="116"/>
      <point x="264" y="89" type="curve"/>
      <point x="321" y="117" type="line"/>
      <point x="321" y="286" type="line"/>
      <point x="254" y="325" type="line"/>
      <point x="112" y="325" type="line"/>
    </contour>
    <contour>
      <point x="556" y="538" type="line"/>
      <point x="573" y="573" type="line"/>
      <point x="525" y="639" type="line"/>
      <point x="377" y="639" type="line"/>
      <point x="360" y="605" type="line"/>
      <point x="408" y="538" type="line"/>
    </contour>
    <contour>
      <point x="517" y="325" type="line"/>
      <point x="199" y="325" type="line"/>
      <point x="230" y="209" type="line"/>
      <point x="554" y="209" type="line"/>
    </contour>
    <contour>
      <point x="36" y="663"/>
      <point x="-15" y="612"/>
      <point x="-15" y="551" type="curve" smooth="yes"/>
      <point x="-15" y="506"/>
      <point x="12" y="457"/>
      <point x="97" y="401" type="curve"/>
      <point x="143" y="444" type="line"/>
      <point x="72" y="493"/>
      <point x="100" y="578"/>
      <point x="165" y="568" type="curve"/>
      <point x="185" y="550"/>
      <point x="189" y="522"/>
      <point x="189" y="491" type="curve" smooth="yes"/>
      <point x="189" y="251" type="line"/>
      <point x="319" y="227" type="line"/>
      <point x="319" y="448" type="line"/>
      <point x="317" y="549"/>
      <point x="216" y="663"/>
      <point x="108" y="663" type="curve" smooth="yes"/>
    </contour>
  </outline>
</glyph>
