<?xml version="1.0" encoding="UTF-8"?>
<glyph name="dvKSha.MAR" format="1">
  <advance width="1357"/>
  <outline>
    <contour>
      <point x="650" y="538" type="line"/>
      <point x="667" y="573" type="line"/>
      <point x="620" y="639" type="line"/>
      <point x="-31" y="639" type="line"/>
      <point x="-48" y="605" type="line"/>
      <point x="-1" y="538" type="line"/>
    </contour>
    <contour>
      <point x="327" y="14" type="line"/>
      <point x="423" y="-40" type="line"/>
      <point x="462" y="-23" type="line"/>
      <point x="462" y="493" type="line"/>
      <point x="373" y="560" type="line"/>
      <point x="327" y="581" type="line"/>
    </contour>
    <contour>
      <point x="233" y="458" type="line"/>
      <point x="116" y="487"/>
      <point x="20" y="405"/>
      <point x="20" y="304" type="curve" smooth="yes"/>
      <point x="20" y="179"/>
      <point x="164" y="93"/>
      <point x="264" y="93" type="curve" smooth="yes"/>
      <point x="326" y="93"/>
      <point x="370" y="126"/>
      <point x="406" y="172" type="curve"/>
      <point x="349" y="299" type="line"/>
      <point x="312" y="222"/>
      <point x="229" y="180"/>
      <point x="170" y="198" type="curve"/>
      <point x="123" y="266"/>
      <point x="164" y="358"/>
      <point x="255" y="358" type="curve" smooth="yes"/>
      <point x="297" y="358"/>
      <point x="338" y="339"/>
      <point x="385" y="307" type="curve"/>
      <point x="399" y="373" type="line"/>
    </contour>
    <contour>
      <point x="690" y="361" type="line"/>
      <point x="659" y="400"/>
      <point x="619" y="428"/>
      <point x="571" y="428" type="curve" smooth="yes"/>
      <point x="485" y="428"/>
      <point x="419" y="346"/>
      <point x="373" y="268" type="curve"/>
      <point x="423" y="155" type="line"/>
      <point x="504" y="271"/>
      <point x="569" y="310"/>
      <point x="621" y="310" type="curve" smooth="yes"/>
      <point x="631" y="310"/>
      <point x="641" y="309"/>
      <point x="650" y="306" type="curve"/>
    </contour>
    <component base="dvSha.MAR" xOffset="543"/>
    <contour>
      <point x="1010" y="650" type="move" name="abvmBINDU"/>
    </contour>
    <contour>
      <point x="1203" y="472" type="move" name="abvmTOP"/>
    </contour>
    <contour>
      <point x="1028" y="650" type="move" name="abvmCANDRABINDU"/>
    </contour>
    <contour>
      <point x="1433" y="650" type="move" name="abvmCANDRABINDU2"/>
    </contour>
    <contour>
      <point x="1125" y="-69" type="move" name="blwmBOTTOM"/>
    </contour>
  </outline>
</glyph>
