<?xml version="1.0" encoding="UTF-8"?>
<glyph name="dvMBha" format="1">
  <advance width="1051"/>
  <outline>
    <contour>
      <point x="22" y="276" type="line"/>
      <point x="47" y="206"/>
      <point x="140" y="116"/>
      <point x="206" y="89" type="curve"/>
      <point x="263" y="117" type="line"/>
      <point x="263" y="286" type="line"/>
      <point x="196" y="325" type="line"/>
      <point x="54" y="325" type="line"/>
    </contour>
    <contour>
      <point x="359" y="538" type="line"/>
      <point x="376" y="573" type="line"/>
      <point x="328" y="639" type="line"/>
      <point x="-31" y="639" type="line"/>
      <point x="-48" y="605" type="line"/>
      <point x="-1" y="538" type="line"/>
    </contour>
    <contour>
      <point x="135" y="245" type="line"/>
      <point x="260" y="208" type="line"/>
      <point x="257" y="493" type="line"/>
      <point x="168" y="560" type="line"/>
      <point x="120" y="581" type="line"/>
    </contour>
    <contour>
      <point x="484" y="325" type="line"/>
      <point x="156" y="325" type="line"/>
      <point x="187" y="209" type="line"/>
      <point x="516" y="209" type="line"/>
    </contour>
    <component base="dvBha" xOffset="371"/>
    <contour>
      <point x="898" y="650" type="move" name="abvmBINDU"/>
    </contour>
    <contour>
      <point x="896" y="472" type="move" name="abvmTOP"/>
    </contour>
    <contour>
      <point x="881" y="650" type="move" name="abvmCANDRABINDU"/>
    </contour>
    <contour>
      <point x="1126" y="650" type="move" name="abvmCANDRABINDU2"/>
    </contour>
    <contour>
      <point x="818" y="3" type="move" name="blwmBOTTOM"/>
    </contour>
  </outline>
</glyph>
