<?xml version="1.0" encoding="UTF-8"?>
<glyph name="dvMNa" format="1">
  <advance width="673"/>
  <outline>
    <contour>
      <point x="35" y="288" type="line"/>
      <point x="60" y="217"/>
      <point x="150" y="137"/>
      <point x="217" y="110" type="curve"/>
      <point x="273" y="140" type="line"/>
      <point x="273" y="298" type="line"/>
      <point x="206" y="336" type="line"/>
      <point x="67" y="336" type="line"/>
    </contour>
    <contour>
      <point x="458" y="14" type="line"/>
      <point x="554" y="-40" type="line"/>
      <point x="593" y="-23" type="line"/>
      <point x="593" y="493" type="line"/>
      <point x="504" y="560" type="line"/>
      <point x="458" y="581" type="line"/>
    </contour>
    <contour>
      <point x="703" y="538" type="line"/>
      <point x="720" y="573" type="line"/>
      <point x="673" y="639" type="line"/>
      <point x="-31" y="639" type="line"/>
      <point x="-48" y="605" type="line"/>
      <point x="-1" y="538" type="line"/>
    </contour>
    <contour>
      <point x="145" y="245" type="line"/>
      <point x="270" y="208" type="line"/>
      <point x="267" y="493" type="line"/>
      <point x="178" y="560" type="line"/>
      <point x="130" y="581" type="line"/>
    </contour>
    <contour>
      <point x="494" y="336" type="line"/>
      <point x="166" y="336" type="line"/>
      <point x="197" y="220" type="line"/>
      <point x="516" y="220" type="line"/>
    </contour>
    <contour>
      <point x="491" y="214" type="line"/>
      <point x="191" y="18" type="line"/>
      <point x="294" y="-37" type="line"/>
      <point x="567" y="140" type="line"/>
    </contour>
    <contour>
      <point x="190" y="-44" type="line"/>
      <point x="234" y="-85"/>
      <point x="307" y="-113"/>
      <point x="368" y="-118" type="curve"/>
      <point x="401" y="-74" type="line"/>
      <point x="327" y="57" type="line"/>
      <point x="272" y="54" type="line"/>
      <point x="191" y="18" type="line"/>
    </contour>
    <contour>
      <point x="371" y="650" type="move" name="abvmBINDU"/>
    </contour>
    <contour>
      <point x="518" y="472" type="move" name="abvmTOP"/>
    </contour>
    <contour>
      <point x="388" y="650" type="move" name="abvmCANDRABINDU"/>
    </contour>
    <contour>
      <point x="748" y="650" type="move" name="abvmCANDRABINDU2"/>
    </contour>
    <contour>
      <point x="466" y="-106" type="move" name="blwmBOTTOM"/>
    </contour>
  </outline>
</glyph>
