<?xml version="1.0" encoding="UTF-8"?>
<glyph name="dvKR" format="1">
  <advance width="631"/>
  <outline>
    <contour>
      <point x="334" y="19" type="line"/>
      <point x="448" y="-43" type="line"/>
      <point x="494" y="-21" type="line"/>
      <point x="494" y="490" type="line"/>
      <point x="390" y="564" type="line"/>
      <point x="334" y="590" type="line"/>
    </contour>
    <contour>
      <point x="-1" y="32" type="line"/>
      <point x="115" y="-63" type="line"/>
      <point x="438" y="171" type="line"/>
      <point x="371" y="278" type="line" smooth="yes"/>
    </contour>
    <contour>
      <point x="246" y="469" type="line"/>
      <point x="109" y="499"/>
      <point x="25" y="410"/>
      <point x="25" y="310" type="curve" smooth="yes"/>
      <point x="25" y="174"/>
      <point x="180" y="87"/>
      <point x="286" y="87" type="curve" smooth="yes"/>
      <point x="295" y="87"/>
      <point x="304" y="88"/>
      <point x="312" y="89" type="curve"/>
      <point x="435" y="177" type="line"/>
      <point x="358" y="311" type="line"/>
      <point x="323" y="236"/>
      <point x="257" y="204"/>
      <point x="205" y="208" type="curve"/>
      <point x="166" y="265"/>
      <point x="193" y="353"/>
      <point x="279" y="353" type="curve" smooth="yes"/>
      <point x="319" y="353"/>
      <point x="360" y="333"/>
      <point x="407" y="300" type="curve"/>
      <point x="426" y="374" type="line"/>
    </contour>
    <contour>
      <point x="764" y="344" type="line"/>
      <point x="730" y="403"/>
      <point x="669" y="447"/>
      <point x="603" y="447" type="curve" smooth="yes"/>
      <point x="507" y="447"/>
      <point x="437" y="354"/>
      <point x="388" y="266" type="curve"/>
      <point x="452" y="139" type="line"/>
      <point x="505" y="218"/>
      <point x="584" y="300"/>
      <point x="631" y="300" type="curve" smooth="yes"/>
      <point x="648" y="300"/>
      <point x="662" y="290"/>
      <point x="670" y="280" type="curve" smooth="yes"/>
      <point x="682" y="268" type="line"/>
    </contour>
    <contour>
      <point x="673" y="538" type="line"/>
      <point x="694" y="580" type="line"/>
      <point x="637" y="655" type="line"/>
      <point x="-36" y="655" type="line"/>
      <point x="-57" y="613" type="line"/>
      <point x="0" y="538" type="line"/>
    </contour>
  </outline>
</glyph>
