<?xml version="1.0" encoding="UTF-8"?>
<glyph name="dvMatraI.17" format="1">
  <advance width="303"/>
  <outline>
    <contour>
      <point x="338" y="538" type="line"/>
      <point x="359" y="580" type="line"/>
      <point x="303" y="655" type="line"/>
      <point x="-36" y="655" type="line"/>
      <point x="-57" y="613" type="line"/>
      <point x="0" y="538" type="line"/>
    </contour>
    <contour>
      <point x="75" y="19" type="line"/>
      <point x="189" y="-43" type="line"/>
      <point x="235" y="-21" type="line"/>
      <point x="235" y="490" type="line"/>
      <point x="131" y="564" type="line"/>
      <point x="75" y="590" type="line"/>
    </contour>
    <contour>
      <point x="1962" y="759" type="line"/>
      <point x="1312" y="956"/>
      <point x="848" y="1023"/>
      <point x="561" y="1023" type="curve" smooth="yes"/>
      <point x="192" y="1023"/>
      <point x="31" y="917"/>
      <point x="31" y="780" type="curve" smooth="yes"/>
      <point x="31" y="741"/>
      <point x="44" y="695"/>
      <point x="94" y="638" type="curve"/>
      <point x="186" y="638" type="line"/>
      <point x="176" y="660"/>
      <point x="172" y="674"/>
      <point x="172" y="691" type="curve" smooth="yes"/>
      <point x="172" y="821"/>
      <point x="362" y="892"/>
      <point x="666" y="892" type="curve" smooth="yes"/>
      <point x="1004" y="892"/>
      <point x="1467" y="805"/>
      <point x="1930" y="681" type="curve"/>
    </contour>
    <contour>
      <point x="1962" y="760" type="move" name="abvmTOP"/>
    </contour>
  </outline>
</glyph>
