<?xml version="1.0" encoding="UTF-8"?>
<glyph name="dvTtKa" format="1">
  <advance width="603"/>
  <outline>
    <contour>
      <point x="490" y="235" type="line"/>
      <point x="413" y="158"/>
      <point x="273" y="127"/>
      <point x="198" y="160" type="curve"/>
      <point x="180" y="179"/>
      <point x="172" y="200"/>
      <point x="172" y="219" type="curve" smooth="yes"/>
      <point x="172" y="266"/>
      <point x="218" y="303"/>
      <point x="310" y="303" type="curve" smooth="yes"/>
      <point x="479" y="303" type="line"/>
      <point x="395" y="454" type="line"/>
      <point x="270" y="454" type="line" smooth="yes"/>
      <point x="102" y="454"/>
      <point x="26" y="368"/>
      <point x="26" y="270" type="curve" smooth="yes"/>
      <point x="26" y="122"/>
      <point x="198" y="1"/>
      <point x="355" y="1" type="curve" smooth="yes"/>
      <point x="427" y="1"/>
      <point x="510" y="28"/>
      <point x="581" y="104" type="curve"/>
    </contour>
    <contour>
      <point x="324" y="345" type="line"/>
      <point x="479" y="303" type="line"/>
      <point x="479" y="490" type="line"/>
      <point x="375" y="564" type="line"/>
      <point x="324" y="590" type="line"/>
    </contour>
    <contour>
      <point x="638" y="538" type="line"/>
      <point x="659" y="580" type="line"/>
      <point x="602" y="655" type="line"/>
      <point x="-36" y="655" type="line"/>
      <point x="-57" y="613" type="line"/>
      <point x="0" y="538" type="line"/>
    </contour>
    <contour>
      <point x="206" y="-29" type="line"/>
      <point x="110" y="-5"/>
      <point x="32" y="-78"/>
      <point x="32" y="-164" type="curve" smooth="yes"/>
      <point x="32" y="-269"/>
      <point x="147" y="-340"/>
      <point x="225" y="-340" type="curve" smooth="yes"/>
      <point x="278" y="-340"/>
      <point x="317" y="-308"/>
      <point x="345" y="-275" type="curve"/>
      <point x="298" y="-153" type="line"/>
      <point x="271" y="-210"/>
      <point x="205" y="-241"/>
      <point x="167" y="-243" type="curve"/>
      <point x="139" y="-189"/>
      <point x="181" y="-134"/>
      <point x="232" y="-134" type="curve" smooth="yes"/>
      <point x="258" y="-134"/>
      <point x="289" y="-149"/>
      <point x="328" y="-176" type="curve"/>
      <point x="342" y="-118" type="line"/>
    </contour>
    <contour>
      <point x="279" y="-381" type="line"/>
      <point x="371" y="-427" type="line"/>
      <point x="406" y="-410" type="line"/>
      <point x="406" y="-35" type="line"/>
      <point x="322" y="19" type="line"/>
      <point x="279" y="39" type="line"/>
    </contour>
    <contour>
      <point x="364" y="-290" type="line"/>
      <point x="404" y="-230"/>
      <point x="465" y="-167"/>
      <point x="502" y="-167" type="curve" smooth="yes"/>
      <point x="517" y="-167"/>
      <point x="526" y="-177"/>
      <point x="526" y="-190" type="curve" smooth="yes"/>
      <point x="526" y="-218"/>
      <point x="482" y="-265"/>
      <point x="420" y="-306" type="curve"/>
      <point x="501" y="-404" type="line"/>
      <point x="582" y="-359"/>
      <point x="638" y="-296"/>
      <point x="638" y="-217" type="curve" smooth="yes"/>
      <point x="638" y="-128"/>
      <point x="565" y="-49"/>
      <point x="488" y="-49" type="curve" smooth="yes"/>
      <point x="413" y="-49"/>
      <point x="348" y="-123"/>
      <point x="311" y="-191" type="curve"/>
    </contour>
    <contour>
      <point x="384" y="660" type="move" name="abvmBINDU"/>
    </contour>
    <contour>
      <point x="425" y="473" type="move" name="abvmTOP"/>
    </contour>
    <contour>
      <point x="370" y="660" type="move" name="abvmCANDRABINDU"/>
    </contour>
    <contour>
      <point x="663" y="660" type="move" name="abvmCANDRABINDU2"/>
    </contour>
    <contour>
      <point x="225" y="-395" type="move" name="blwmBOTTOM"/>
    </contour>
  </outline>
</glyph>
