<?xml version="1.0" encoding="UTF-8"?>
<glyph name="Etaiotasub" format="1">
  <advance width="829.0"/>
  <unicode hex="1FCC"/>
  <note>
  </note>
  <outline>
    <component base="Eta"/>
    <component base="iotaadscript.case" xOffset="301"/>
  </outline>
  <lib>
    <dict>
      <key>com.typemytype.robofont.mark</key>
      <array>
        <real>0.4</real>
        <real>1.0</real>
        <real>0.8</real>
        <real>1.0</real>
      </array>
    </dict>
  </lib>
</glyph>
