<?xml version="1.0" encoding="UTF-8"?>
<glyph name="gbreve" format="1">
  <advance width="580"/>
  <unicode hex="011F"/>
  <outline>
    <component base="g"/>
    <component base="brevecomb" xOffset="265" yOffset="-5"/>
  </outline>
  <lib>
    <dict>
      <key>com.schriftgestaltung.Glyphs.ColorIndex</key>
      <integer>3</integer>
      <key>public.markColor</key>
      <string>0.97,1,0,1</string>
    </dict>
  </lib>
</glyph>
