<?xml version="1.0" encoding="UTF-8"?>
<glyph name="lslash" format="1">
  <advance width="432"/>
  <unicode hex="0142"/>
  <outline>
    <contour>
      <point x="6" y="325" type="line"/>
      <point x="41" y="258" type="line"/>
      <point x="374" y="426" type="line"/>
      <point x="374" y="482" type="line"/>
      <point x="348" y="498" type="line"/>
    </contour>
    <component base="l" xOffset="23"/>
  </outline>
  <lib>
    <dict>
      <key>com.schriftgestaltung.Glyphs.ColorIndex</key>
      <integer>3</integer>
      <key>com.schriftgestaltung.Glyphs.leftMetricsKey</key>
      <string>l</string>
      <key>public.markColor</key>
      <string>0.97,1,0,1</string>
    </dict>
  </lib>
</glyph>
