<?xml version="1.0" encoding="UTF-8"?>
<glyph name="alphaasperacute" format="1">
  <advance width="559"/>
  <unicode hex="1F05"/>
  <note>
  </note>
  <outline>
    <component base="alpha"/>
    <component base="asperacute" xOffset="84"/>
  </outline>
  <lib>
    <dict>
      <key>com.typemytype.robofont.mark</key>
      <array>
        <real>0.4</real>
        <real>1.0</real>
        <real>0.8</real>
        <real>1.0</real>
      </array>
    </dict>
  </lib>
</glyph>
