<?xml version="1.0" encoding="UTF-8"?>
<glyph name="aspertilde.case" format="1">
  <advance width="340.0"/>
  <outline>
    <contour>
      <point x="71" y="273" type="line"/>
      <point x="0" y="307"/>
      <point x="-41" y="372"/>
      <point x="-41" y="429" type="curve" smooth="yes"/>
      <point x="-41" y="469"/>
      <point x="-15" y="508"/>
      <point x="31" y="518" type="curve"/>
      <point x="67" y="502"/>
      <point x="85" y="474"/>
      <point x="91" y="435" type="curve"/>
      <point x="40" y="396" type="line"/>
      <point x="43" y="363"/>
      <point x="59" y="341"/>
      <point x="96" y="308" type="curve"/>
    </contour>
    <contour>
      <point x="180" y="661" type="line"/>
      <point x="153" y="614" type="line"/>
      <point x="108" y="597"/>
      <point x="13" y="673"/>
      <point x="-59" y="673" type="curve" smooth="yes"/>
      <point x="-108" y="673"/>
      <point x="-136" y="636"/>
      <point x="-148" y="555" type="curve"/>
      <point x="-113" y="540" type="line"/>
      <point x="-88" y="584" type="line"/>
      <point x="-41" y="607"/>
      <point x="54" y="529"/>
      <point x="125" y="529" type="curve" smooth="yes"/>
      <point x="176" y="529"/>
      <point x="203" y="566"/>
      <point x="216" y="648" type="curve"/>
    </contour>
    <contour>
      <point x="123" y="343" type="move" name="_left"/>
    </contour>
  </outline>
  <lib>
    <dict>
      <key>com.typemytype.robofont.mark</key>
      <array>
        <real>0.4</real>
        <real>1.0</real>
        <real>0.8</real>
        <real>1.0</real>
      </array>
    </dict>
  </lib>
</glyph>
