<?xml version="1.0" encoding="UTF-8"?>
<glyph name="dvJNyYa" format="1">
  <advance width="1032"/>
  <outline>
    <contour>
      <point x="553" y="336" type="line"/>
      <point x="455" y="414"/>
      <point x="350" y="466"/>
      <point x="233" y="466" type="curve"/>
      <point x="120" y="466"/>
      <point x="56" y="423"/>
      <point x="56" y="351" type="curve" smooth="yes"/>
      <point x="56" y="306"/>
      <point x="92" y="242"/>
      <point x="141" y="201" type="curve"/>
      <point x="282" y="162" type="line" smooth="yes"/>
      <point x="339" y="146"/>
      <point x="354" y="120"/>
      <point x="354" y="98" type="curve" smooth="yes"/>
      <point x="354" y="40"/>
      <point x="255" y="12"/>
      <point x="165" y="42" type="curve"/>
      <point x="206" y="-57" type="line"/>
      <point x="314" y="-93"/>
      <point x="446" y="-50"/>
      <point x="446" y="61" type="curve" smooth="yes"/>
      <point x="446" y="128"/>
      <point x="398" y="204"/>
      <point x="322" y="267" type="curve"/>
      <point x="128" y="316" type="line"/>
      <point x="127" y="354"/>
      <point x="166" y="368"/>
      <point x="232" y="368" type="curve"/>
      <point x="330" y="368"/>
      <point x="432" y="320"/>
      <point x="533" y="234" type="curve"/>
    </contour>
    <contour>
      <point x="611" y="538" type="line"/>
      <point x="624" y="565" type="line"/>
      <point x="586" y="624" type="line"/>
      <point x="-26" y="624" type="line"/>
      <point x="-39" y="596" type="line"/>
      <point x="0" y="538" type="line"/>
    </contour>
    <contour>
      <point x="428" y="-161" type="line"/>
      <point x="194" y="-20" type="line"/>
      <point x="139" y="-37" type="line"/>
      <point x="364" y="-254" type="line"/>
      <point x="431" y="-187" type="line"/>
    </contour>
    <contour>
      <point x="217" y="-29" type="line"/>
      <point x="212" y="7" type="line"/>
      <point x="126" y="106" type="line"/>
      <point x="88" y="97" type="line"/>
      <point x="54" y="-29" type="line"/>
      <point x="86" y="-54"/>
      <point x="169" y="-73"/>
      <point x="210" y="-66" type="curve"/>
    </contour>
    <component base="dvYa" xOffset="422"/>
    <contour>
      <point x="753" y="640" type="move" name="abvmBINDU"/>
    </contour>
    <contour>
      <point x="887" y="470" type="move" name="abvmTOP"/>
    </contour>
    <contour>
      <point x="780" y="640" type="move" name="abvmCANDRABINDU"/>
    </contour>
    <contour>
      <point x="1080" y="640" type="move" name="abvmCANDRABINDU2"/>
    </contour>
    <contour>
      <point x="823" y="4" type="move" name="blwmBOTTOM"/>
    </contour>
  </outline>
</glyph>
