<?xml version="1.0" encoding="UTF-8"?>
<glyph name="dvLKYa" format="1">
  <advance width="1659"/>
  <outline>
    <component base="dvL"/>
    <component base="dvKYa" xOffset="456"/>
    <contour>
      <point x="1380" y="640" type="move" name="abvmBINDU"/>
    </contour>
    <contour>
      <point x="1514" y="470" type="move" name="abvmTOP"/>
    </contour>
    <contour>
      <point x="1407" y="640" type="move" name="abvmCANDRABINDU"/>
    </contour>
    <contour>
      <point x="1707" y="640" type="move" name="abvmCANDRABINDU2"/>
    </contour>
    <contour>
      <point x="1450" y="4" type="move" name="blwmBOTTOM"/>
    </contour>
  </outline>
</glyph>
