<?xml version="1.0" encoding="UTF-8"?>
<glyph name="dvShVa" format="1">
  <advance width="696"/>
  <outline>
    <contour>
      <point x="132" y="647"/>
      <point x="73" y="581"/>
      <point x="73" y="510" type="curve" smooth="yes"/>
      <point x="73" y="364"/>
      <point x="322" y="205"/>
      <point x="526" y="243" type="curve"/>
      <point x="532" y="319" type="line"/>
      <point x="320" y="275"/>
      <point x="174" y="377"/>
      <point x="174" y="479" type="curve" smooth="yes"/>
      <point x="174" y="554"/>
      <point x="256" y="594"/>
      <point x="303" y="543" type="curve"/>
      <point x="321" y="498"/>
      <point x="282" y="425"/>
      <point x="204" y="375" type="curve"/>
      <point x="189" y="364" type="line"/>
      <point x="8" y="249" type="line"/>
      <point x="84" y="171" type="line"/>
      <point x="268" y="293" type="line"/>
      <point x="277" y="301" type="line"/>
      <point x="356" y="356"/>
      <point x="387" y="418"/>
      <point x="387" y="471" type="curve" smooth="yes"/>
      <point x="387" y="555"/>
      <point x="308" y="647"/>
      <point x="213" y="647" type="curve" smooth="yes"/>
    </contour>
    <contour>
      <point x="721" y="538" type="line"/>
      <point x="734" y="565" type="line"/>
      <point x="696" y="624" type="line"/>
      <point x="416" y="624" type="line"/>
      <point x="403" y="596" type="line"/>
      <point x="442" y="538" type="line"/>
    </contour>
    <contour>
      <point x="502" y="-56" type="line"/>
      <point x="579" y="-101" type="line"/>
      <point x="611" y="-89" type="line"/>
      <point x="611" y="497" type="line"/>
      <point x="537" y="555" type="line"/>
      <point x="502" y="571" type="line"/>
    </contour>
    <contour>
      <point x="381" y="267" type="line"/>
      <point x="268" y="244"/>
      <point x="208" y="172"/>
      <point x="208" y="109" type="curve" smooth="yes"/>
      <point x="208" y="21"/>
      <point x="319" y="-41"/>
      <point x="403" y="-41" type="curve" smooth="yes"/>
      <point x="490" y="-41"/>
      <point x="552" y="27"/>
      <point x="576" y="120" type="curve"/>
      <point x="508" y="181" type="line"/>
      <point x="497" y="84"/>
      <point x="398" y="24"/>
      <point x="335" y="32" type="curve"/>
      <point x="317" y="47"/>
      <point x="308" y="66"/>
      <point x="308" y="86" type="curve" smooth="yes"/>
      <point x="308" y="152"/>
      <point x="398" y="226"/>
      <point x="531" y="216" type="curve"/>
      <point x="522" y="242" type="line"/>
    </contour>
    <contour>
      <point x="552" y="640" type="move" name="abvmBINDU"/>
    </contour>
    <contour>
      <point x="551" y="470" type="move" name="abvmTOP"/>
    </contour>
    <contour>
      <point x="536" y="640" type="move" name="abvmCANDRABINDU"/>
    </contour>
    <contour>
      <point x="744" y="640" type="move" name="abvmCANDRABINDU2"/>
    </contour>
    <contour>
      <point x="487" y="-59" type="move" name="blwmBOTTOM"/>
    </contour>
  </outline>
</glyph>
