<?xml version="1.0" encoding="UTF-8"?>
<glyph name="dvTKYa" format="1">
  <advance width="1540"/>
  <outline>
    <component base="dvT"/>
    <component base="dvKYa" xOffset="321"/>
    <contour>
      <point x="1261" y="640" type="move" name="abvmBINDU"/>
    </contour>
    <contour>
      <point x="1395" y="470" type="move" name="abvmTOP"/>
    </contour>
    <contour>
      <point x="1287" y="640" type="move" name="abvmCANDRABINDU"/>
    </contour>
    <contour>
      <point x="1587" y="640" type="move" name="abvmCANDRABINDU2"/>
    </contour>
    <contour>
      <point x="1331" y="4" type="move" name="blwmBOTTOM"/>
    </contour>
  </outline>
</glyph>
