<?xml version="1.0" encoding="UTF-8"?>
<glyph name="etalenistildeiotasub" format="1">
  <advance width="536"/>
  <unicode hex="1F96"/>
  <note>
  </note>
  <outline>
    <component base="lenistilde" xOffset="100"/>
    <component base="iotaadscript" xOffset="38"/>
    <component base="eta"/>
  </outline>
  <lib>
    <dict>
      <key>com.typemytype.robofont.mark</key>
      <array>
        <real>0.4</real>
        <real>1.0</real>
        <real>0.8</real>
        <real>1.0</real>
      </array>
    </dict>
  </lib>
</glyph>
