<?xml version="1.0" encoding="UTF-8"?>
<glyph name="f_j.liga" format="1">
  <advance width="637"/>
  <outline>
    <component base="f"/>
    <component base="j" xOffset="346"/>
  </outline>
  <lib>
    <dict>
      <key>com.schriftgestaltung.Glyphs.ColorIndex</key>
      <integer>3</integer>
      <key>com.schriftgestaltung.Glyphs.rightMetricsKey</key>
      <string>auto</string>
      <key>public.markColor</key>
      <string>0.97,1,0,1</string>
    </dict>
  </lib>
</glyph>
