<?xml version="1.0" encoding="UTF-8"?>
<glyph name="Ncaron" format="1">
  <advance width="759"/>
  <unicode hex="0147"/>
  <outline>
    <component base="N"/>
    <component base="caroncomb.case" xOffset="361" yOffset="35"/>
  </outline>
  <lib>
    <dict>
      <key>com.schriftgestaltung.Glyphs.ColorIndex</key>
      <integer>3</integer>
      <key>public.markColor</key>
      <string>0.97,1,0,1</string>
    </dict>
  </lib>
</glyph>
