<?xml version="1.0" encoding="UTF-8"?>
<glyph name="upsilondieresisgrave" format="1">
  <advance width="507"/>
  <unicode hex="1FE2"/>
  <note>
  </note>
  <outline>
    <component base="upsilon"/>
    <component base="dieresisgrave" xOffset="70"/>
  </outline>
  <lib>
    <dict>
      <key>com.typemytype.robofont.mark</key>
      <array>
        <real>0.4</real>
        <real>1.0</real>
        <real>0.8</real>
        <real>1.0</real>
      </array>
    </dict>
  </lib>
</glyph>
