<?xml version="1.0" encoding="UTF-8"?>
<glyph name="epsilonacute" format="1">
  <advance width="447"/>
  <unicode hex="1F73"/>
  <note>
  </note>
  <outline>
    <component base="epsilon"/>
    <component base="gr:acute" xOffset="88"/>
  </outline>
  <lib>
    <dict>
      <key>com.typemytype.robofont.mark</key>
      <array>
        <real>0.4</real>
        <real>1.0</real>
        <real>0.8</real>
        <real>1.0</real>
      </array>
    </dict>
  </lib>
</glyph>
