<?xml version="1.0" encoding="UTF-8"?>
<glyph name="dvDdhDdha" format="1">
  <advance width="624"/>
  <outline>
    <contour>
      <point x="432" y="78" type="line"/>
      <point x="405" y="113"/>
      <point x="392" y="141"/>
      <point x="392" y="170" type="curve" smooth="yes"/>
      <point x="392" y="211"/>
      <point x="421" y="232"/>
      <point x="446" y="232" type="curve" smooth="yes"/>
      <point x="466" y="232"/>
      <point x="485" y="217"/>
      <point x="485" y="189" type="curve" smooth="yes"/>
      <point x="485" y="133"/>
      <point x="412" y="98"/>
      <point x="325" y="98" type="curve" smooth="yes"/>
      <point x="287" y="98"/>
      <point x="242" y="106"/>
      <point x="208" y="119" type="curve"/>
      <point x="179" y="149"/>
      <point x="164" y="185"/>
      <point x="164" y="221" type="curve" smooth="yes"/>
      <point x="164" y="287"/>
      <point x="214" y="342"/>
      <point x="316" y="342" type="curve" smooth="yes"/>
      <point x="497" y="342" type="line"/>
      <point x="423" y="465" type="line"/>
      <point x="286" y="465" type="line" smooth="yes"/>
      <point x="112" y="465"/>
      <point x="40" y="365"/>
      <point x="40" y="271" type="curve" smooth="yes"/>
      <point x="40" y="121"/>
      <point x="219" y="-8"/>
      <point x="382" y="-8" type="curve" smooth="yes"/>
      <point x="507" y="-8"/>
      <point x="577" y="68"/>
      <point x="577" y="144" type="curve" smooth="yes"/>
      <point x="577" y="219"/>
      <point x="509" y="311"/>
      <point x="407" y="311" type="curve" smooth="yes"/>
      <point x="327" y="311"/>
      <point x="277" y="257"/>
      <point x="277" y="198" type="curve" smooth="yes"/>
      <point x="277" y="178"/>
      <point x="283" y="156"/>
      <point x="295" y="137" type="curve"/>
      <point x="406" y="61" type="line"/>
    </contour>
    <contour>
      <point x="369" y="359" type="line"/>
      <point x="498" y="342" type="line"/>
      <point x="498" y="493" type="line"/>
      <point x="409" y="560" type="line"/>
      <point x="369" y="581" type="line"/>
    </contour>
    <contour>
      <point x="654" y="538" type="line"/>
      <point x="671" y="573" type="line"/>
      <point x="623" y="639" type="line"/>
      <point x="-31" y="639" type="line"/>
      <point x="-43" y="605" type="line"/>
      <point x="-1" y="538" type="line"/>
    </contour>
    <contour>
      <point x="428" y="-366" type="line"/>
      <point x="406" y="-338"/>
      <point x="394" y="-313"/>
      <point x="394" y="-290" type="curve" smooth="yes"/>
      <point x="394" y="-258"/>
      <point x="417" y="-241"/>
      <point x="437" y="-241" type="curve" smooth="yes"/>
      <point x="457" y="-241"/>
      <point x="472" y="-258"/>
      <point x="472" y="-279" type="curve" smooth="yes"/>
      <point x="472" y="-316"/>
      <point x="415" y="-352"/>
      <point x="333" y="-352" type="curve" smooth="yes"/>
      <point x="303" y="-352"/>
      <point x="265" y="-347"/>
      <point x="237" y="-335" type="curve"/>
      <point x="219" y="-313"/>
      <point x="209" y="-286"/>
      <point x="209" y="-258" type="curve" smooth="yes"/>
      <point x="209" y="-201"/>
      <point x="251" y="-152"/>
      <point x="340" y="-152" type="curve" smooth="yes"/>
      <point x="487" y="-152" type="line"/>
      <point x="420" y="-47" type="line"/>
      <point x="313" y="-47" type="line" smooth="yes"/>
      <point x="169" y="-47"/>
      <point x="98" y="-127"/>
      <point x="98" y="-216" type="curve" smooth="yes"/>
      <point x="98" y="-340"/>
      <point x="241" y="-440"/>
      <point x="380" y="-440" type="curve" smooth="yes"/>
      <point x="483" y="-440"/>
      <point x="548" y="-386"/>
      <point x="548" y="-313" type="curve" smooth="yes"/>
      <point x="548" y="-243"/>
      <point x="486" y="-171"/>
      <point x="402" y="-171" type="curve" smooth="yes"/>
      <point x="334" y="-171"/>
      <point x="295" y="-218"/>
      <point x="295" y="-267" type="curve" smooth="yes"/>
      <point x="295" y="-284"/>
      <point x="300" y="-302"/>
      <point x="310" y="-319" type="curve"/>
      <point x="406" y="-380" type="line"/>
    </contour>
    <contour>
      <point x="373" y="-138" type="line"/>
      <point x="487" y="-152" type="line"/>
      <point x="487" y="-33" type="line"/>
      <point x="412" y="29" type="line"/>
      <point x="373" y="46" type="line"/>
    </contour>
    <contour>
      <point x="436" y="650" type="move" name="abvmBINDU"/>
    </contour>
    <contour>
      <point x="454" y="472" type="move" name="abvmTOP"/>
    </contour>
    <contour>
      <point x="419" y="650" type="move" name="abvmCANDRABINDU"/>
    </contour>
    <contour>
      <point x="674" y="650" type="move" name="abvmCANDRABINDU2"/>
    </contour>
    <contour>
      <point x="331" y="-435" type="move" name="blwmBOTTOM"/>
    </contour>
  </outline>
</glyph>
