<?xml version="1.0" encoding="UTF-8"?>
<glyph name="dvTth" format="1">
  <advance width="619"/>
  <outline>
    <component base="dvTtha"/>
    <component base="dvHalant" xOffset="495" yOffset="-19"/>
  </outline>
</glyph>
