<?xml version="1.0" encoding="UTF-8"?>
<glyph name="psi" format="1">
  <advance width="655"/>
  <unicode hex="03C8"/>
  <outline>
    <contour>
      <point x="404" y="-211" type="curve"/>
      <point x="366" y="2" type="line"/>
      <point x="367" y="52" type="line"/>
      <point x="405" y="690" type="line"/>
      <point x="386" y="702" type="line"/>
      <point x="356" y="701"/>
      <point x="329" y="695"/>
      <point x="299" y="684" type="curve"/>
      <point x="313" y="65" type="line"/>
      <point x="313" y="-2" type="line"/>
      <point x="289" y="-213" type="line"/>
      <point x="313" y="-225" type="line"/>
      <point x="357" y="-225"/>
      <point x="391" y="-220"/>
    </contour>
    <contour>
      <point x="141" y="116" type="curve"/>
      <point x="159" y="176" type="line"/>
      <point x="181" y="292"/>
      <point x="189.0" y="345.68"/>
      <point x="189" y="378" type="curve" smooth="yes"/>
      <point x="189" y="437"/>
      <point x="155" y="482"/>
      <point x="111" y="482" type="curve" smooth="yes"/>
      <point x="78" y="482"/>
      <point x="33" y="447"/>
      <point x="10" y="403" type="curve"/>
      <point x="26" y="375" type="line"/>
      <point x="111" y="387" type="line"/>
      <point x="91" y="265"/>
      <point x="85" y="225"/>
      <point x="85" y="163" type="curve" smooth="yes"/>
      <point x="85" y="56"/>
      <point x="196" y="-20"/>
      <point x="343" y="-20" type="curve" smooth="yes"/>
      <point x="513" y="-20"/>
      <point x="623" y="88"/>
      <point x="623" y="245" type="curve" smooth="yes"/>
      <point x="623" y="326"/>
      <point x="603" y="398"/>
      <point x="563" y="455" type="curve"/>
      <point x="550" y="466"/>
      <point x="535" y="475"/>
      <point x="514" y="483" type="curve"/>
      <point x="497" y="465" type="line"/>
      <point x="526" y="409"/>
      <point x="541" y="348"/>
      <point x="541" y="286" type="curve" smooth="yes"/>
      <point x="541" y="123"/>
      <point x="454" y="70"/>
      <point x="335" y="70" type="curve" smooth="yes"/>
      <point x="225" y="70"/>
      <point x="174" y="93"/>
    </contour>
  </outline>
  <lib>
    <dict>
      <key>com.typemytype.robofont.mark</key>
      <array>
        <real>0.4</real>
        <real>1.0</real>
        <real>1.0</real>
        <real>1.0</real>
      </array>
    </dict>
  </lib>
</glyph>
